<svg xmlns="http://www.w3.org/2000/svg" width="70.472" height="70.512" viewBox="0 0 70.472 70.512">
  <g id="Group_1846" data-name="Group 1846" transform="translate(-1388.7 -423.7)">
    <g id="Group_1591" data-name="Group 1591" transform="translate(1389 424)">
      <g id="study" transform="translate(0 0)">
        <g id="Group_1620" data-name="Group 1620" transform="translate(0 0)">
          <path id="Path_194" data-name="Path 194" d="M65.778,37.341V30.848A2.047,2.047,0,0,0,63.731,28.8a61.753,61.753,0,0,0-11.9,1.086,18.482,18.482,0,0,0-7.685-4.45,14.329,14.329,0,1,0-18.427,0,18.485,18.485,0,0,0-7.685,4.45A61.763,61.763,0,0,0,6.141,28.8a2.047,2.047,0,0,0-2.047,2.047v6.493A6.151,6.151,0,0,0,0,43.13v4.094a6.151,6.151,0,0,0,4.094,5.789v6.493a2.047,2.047,0,0,0,2.047,2.047c10.7,0,19.492,2.536,27.659,7.981a2.054,2.054,0,0,0,2.271,0c8.167-5.445,16.956-7.981,27.659-7.981a2.047,2.047,0,0,0,2.047-2.047V53.013a6.151,6.151,0,0,0,4.094-5.789V43.13A6.151,6.151,0,0,0,65.778,37.341ZM24.7,14.472A10.235,10.235,0,1,1,34.936,24.707,10.316,10.316,0,0,1,24.7,14.472Zm-18.56,34.8a2.049,2.049,0,0,1-2.047-2.047V43.13a2.047,2.047,0,0,1,4.094,0v4.094A2.049,2.049,0,0,1,6.141,49.271ZM32.889,64.158a51.218,51.218,0,0,0-24.7-6.669V53.013a6.151,6.151,0,0,0,4.094-5.789V43.13a6.151,6.151,0,0,0-4.094-5.789V32.924c9.618.276,17.35,2.541,24.7,7.221ZM34.936,36.6a48.649,48.649,0,0,0-11.909-5.475A14.359,14.359,0,0,1,30.842,28.8H39.03a14.359,14.359,0,0,1,7.815,2.323A48.647,48.647,0,0,0,34.936,36.6Zm26.748,20.89a51.221,51.221,0,0,0-24.7,6.669V40.147c7.351-4.681,15.082-6.947,24.7-7.223v4.417A6.151,6.151,0,0,0,57.59,43.13v4.094a6.151,6.151,0,0,0,4.094,5.789Zm4.094-10.265a2.047,2.047,0,1,1-4.094,0V43.13a2.047,2.047,0,0,1,4.094,0Z" transform="translate(0 -0.006)" fill="#28a745" stroke="#fff" stroke-width="0.6"/>
        </g>
      </g>
    </g>
  </g>
</svg>
