<svg xmlns="http://www.w3.org/2000/svg" width="13.127" height="13.252" viewBox="0 0 13.127 13.252">
  <g id="noun_Cross_929505" transform="translate(0.5 0.562)" opacity="0.313">
    <path id="Path" d="M6.841,6.067,11.973.956a.524.524,0,0,0,0-.742h0a.53.53,0,0,0-.745,0L6.093,5.322.9.153a.53.53,0,0,0-.745,0,.524.524,0,0,0,0,.742L5.348,6.063.157,11.232a.524.524,0,0,0,0,.742h0a.53.53,0,0,0,.745,0L6.093,6.808l5.129,5.1a.53.53,0,0,0,.745,0,.524.524,0,0,0,0-.742Z" transform="translate(0)" stroke="#000" stroke-miterlimit="10" stroke-width="1"/>
  </g>
</svg>
