<svg xmlns="http://www.w3.org/2000/svg" width="74.982" height="74.981" viewBox="0 0 74.982 74.981">
  <path id="Path_561" data-name="Path 561" d="M77.351,13.234H69.743V5.63A1.63,1.63,0,0,0,66.96,4.477l-7.037,7.036a36.506,36.506,0,1,0,11.542,11.54L78.5,16.016a1.63,1.63,0,0,0-1.153-2.782ZM73.782,42.459A33.259,33.259,0,1,1,57.549,13.887L52.83,18.606a1.631,1.631,0,0,0-.478,1.152v3.507a22.575,22.575,0,0,0-11.83-3.373h0A22.613,22.613,0,1,0,59.71,30.622h3.509a1.63,1.63,0,0,0,1.152-.477l4.721-4.719A33.1,33.1,0,0,1,73.782,42.459ZM52.352,28.321l-7.01,7.011a8.618,8.618,0,1,0,2.3,2.3l7.013-7.013h1.088a19.289,19.289,0,1,1-15.227-7.471h0a19.305,19.305,0,0,1,11.83,4.073v1.1ZM45.869,42.459a5.363,5.363,0,1,1-2.9-4.751l-3.6,3.6a1.63,1.63,0,1,0,2.3,2.3l3.6-3.6A5.3,5.3,0,0,1,45.869,42.459ZM68.23,21.677l-.042.042-5.645,5.643H55.612V20.435L61.246,14.8c.022-.02.043-.042.064-.064l5.172-5.171v5.3a1.631,1.631,0,0,0,1.63,1.63h5.3Z" transform="translate(-4 -3.999)" fill="#28a745"/>
</svg>
