<svg xmlns="http://www.w3.org/2000/svg" width="48.402" height="43.362" viewBox="0 0 48.402 43.362">
  <g id="Group_1639" data-name="Group 1639" transform="translate(-696 -125)">
    <circle id="Ellipse_5" data-name="Ellipse 5" cx="20.986" cy="20.986" r="20.986" transform="translate(696 125)" fill="#eff3f9"/>
    <g id="Group_1614" data-name="Group 1614" transform="translate(706.65 134.397)">
      <line id="Line_7" data-name="Line 7" x1="10.023" transform="translate(0 12.529)" fill="none" stroke="#004061" stroke-linecap="round" stroke-width="2.5"/>
      <line id="Line_8" data-name="Line 8" y1="12.529" transform="translate(10.023)" fill="none" stroke="#004061" stroke-linecap="round" stroke-width="2.5"/>
    </g>
    <g id="Group_1618" data-name="Group 1618" transform="translate(723.188 147.328)">
      <g id="Ellipse_4" data-name="Ellipse 4" transform="translate(0.214 0.034)" fill="#004061" stroke="#fff" stroke-width="2">
        <circle cx="10.5" cy="10.5" r="10.5" stroke="none"/>
        <circle cx="10.5" cy="10.5" r="9.5" fill="none"/>
      </g>
      <path id="Path_92" data-name="Path 92" d="M10325.562,2201.977c3.577-4.724,9.248-4.2,12.194,0C10334.9,2206.129,10329.253,2206.8,10325.562,2201.977Z" transform="translate(-10320.643 -2190.977)" fill="#fff" stroke="#004061" stroke-width="1"/>
      <circle id="Ellipse_6" data-name="Ellipse 6" cx="2" cy="2" r="2" transform="translate(9.214 9.034)" fill="#004061"/>
    </g>
  </g>
</svg>
