<svg xmlns="http://www.w3.org/2000/svg" width="21.343" height="21.343" viewBox="0 0 21.343 21.343">
  <g id="noun_help_2302543" opacity="0.808">
    <path id="Path_566" data-name="Path 566" d="M10.671,1.921a8.751,8.751,0,1,1-8.751,8.751,8.751,8.751,0,0,1,8.751-8.751m0-1.921A10.671,10.671,0,1,0,21.343,10.671,10.671,10.671,0,0,0,10.671,0Z"/>
    <path id="Path_567" data-name="Path 567" d="M36.364,31.54a1.535,1.535,0,0,0-1.513,1.494,1.507,1.507,0,1,0,3.014.015A1.535,1.535,0,0,0,36.364,31.54ZM39.587,24.5a4.041,4.041,0,0,0-6.23-.053c-.7.79-.61.871.139,1.415s.783.8,1.554-.107a1.707,1.707,0,0,1,2.279-.354.813.813,0,0,1,.038,1.494c-.393.265-.817.482-1.217.738A2.134,2.134,0,0,0,35.1,29.619c.015.354.166.563.551.549h1.468a.427.427,0,0,0,.48-.446c-.028-.487.277-.7.623-.907.267-.16.536-.318.8-.484A2.586,2.586,0,0,0,39.587,24.5Z" transform="translate(-25.863 -18.094)"/>
  </g>
</svg>
