<svg xmlns="http://www.w3.org/2000/svg" width="52.342" height="51" viewBox="0 0 52.342 51">
  <g id="Group_1591" data-name="Group 1591" transform="translate(-42.621 -41.621)">
    <g id="Group_1631" data-name="Group 1631" transform="translate(42.621 41.621)">
      <g id="Group_1613" data-name="Group 1613">
        <circle id="Ellipse_5" data-name="Ellipse 5" cx="22.48" cy="22.48" r="22.48" fill="#e3edfd"/>
        <path id="Polygon_1" data-name="Polygon 1" d="M8.528,1.112a1,1,0,0,1,1.617,0l7.373,10.137a1,1,0,0,1-.809,1.588H1.964a1,1,0,0,1-.809-1.588Z" transform="translate(31.335 12.488) rotate(90)" fill="#2a87ea"/>
      </g>
      <g id="Group_1612" data-name="Group 1612" transform="translate(29.001 27.659)">
        <g id="Ellipse_4" data-name="Ellipse 4" transform="translate(0 0)" fill="#2a87ea" stroke="#fff" stroke-width="2">
          <circle cx="11.67" cy="11.67" r="11.67" stroke="none"/>
          <circle cx="11.67" cy="11.67" r="10.67" fill="none"/>
        </g>
        <g id="Group_1610" data-name="Group 1610" transform="translate(9.249 7.907)">
          <line id="Line_4" data-name="Line 4" y2="7.849" transform="translate(2.684 0)" fill="none" stroke="#fff" stroke-linecap="round" stroke-width="1.5"/>
          <line id="Line_6" data-name="Line 6" x1="2.684" y2="2.684" transform="translate(0 0)" fill="none" stroke="#fff" stroke-linecap="round" stroke-width="1.5"/>
          <line id="Line_5" data-name="Line 5" x2="2.684" y2="2.684" transform="translate(2.684 0)" fill="none" stroke="#fff" stroke-linecap="round" stroke-width="1.5"/>
        </g>
      </g>
    </g>
  </g>
</svg>
