<svg xmlns="http://www.w3.org/2000/svg" width="33.133" height="43.074" viewBox="0 0 33.133 43.074">
  <g id="Group_134" data-name="Group 134" transform="translate(-79 -41)">
    <g id="Group_112" data-name="Group 112" transform="translate(79 41)">
      <g id="noun_File_2044110_000000" transform="translate(0 0)">
        <path id="Path" d="M0,0V8.348H8.348Z" transform="translate(24.422 0.363)" fill="#626262"/>
        <path id="Path-2" data-name="Path" d="M21.362,12.242V0H0V43.074H33.133V12.242Z" transform="translate(0 0)" fill="#626262"/>
      </g>
    </g>
    <g id="noun_PDF_749513" transform="translate(82.509 52.831)">
      <g id="Group_113" data-name="Group 113" transform="translate(0 0)">
        <path id="Path_17" data-name="Path 17" d="M44.432,34.25c-1.064-1.186-2.114-2.511-3.06-3.7-.446-.563-.873-1.1-1.272-1.588l-.029-.036a16.7,16.7,0,0,0,.994-4.052c.189-2.607-.1-4.287-.89-5.134a1.958,1.958,0,0,0-2.083-.52,2.752,2.752,0,0,0-1.684,1.941,10.478,10.478,0,0,0,1.445,8.062,59.521,59.521,0,0,1-3.1,6.69,14.706,14.706,0,0,0-5.473,3.166c-1.726,1.685-2.428,3.358-1.926,4.588a1.974,1.974,0,0,0,1.913,1.217,3.608,3.608,0,0,0,1.935-.645c1.635-1.069,3.77-4.63,4.915-6.693a30.467,30.467,0,0,1,5.9-1.157c.538-.052,1.072-.093,1.586-.122,2.08,2.2,3.782,3.356,5.35,3.645a5.137,5.137,0,0,0,.939.088,3.148,3.148,0,0,0,2.826-1.363,2.019,2.019,0,0,0-.021-2.064c-.87-1.506-3.495-2.335-7.392-2.335C45.022,34.237,44.732,34.241,44.432,34.25ZM30.119,42.581a1.745,1.745,0,0,1-.851.322.383.383,0,0,1-.088-.008c-.039-.2.1-1.051,1.484-2.4a10.45,10.45,0,0,1,2.442-1.726A14.712,14.712,0,0,1,30.119,42.581Zm8.17-20.807c.144-.442.323-.641.434-.679l.007,0c.107.121.564.813.36,3.637a10.111,10.111,0,0,1-.357,1.855A7.834,7.834,0,0,1,38.288,21.774Zm3.535,12.645a33.614,33.614,0,0,0-4.446.733c.694-1.385,1.336-2.79,1.873-4.091q.279.349.57.717c.647.816,1.375,1.733,2.129,2.629Zm9.155,3.143c.029.051.029.071.021.085a1.372,1.372,0,0,1-1.113.373,3.178,3.178,0,0,1-.578-.056,6.572,6.572,0,0,1-2.9-1.722C49.484,36.389,50.729,37.131,50.978,37.562Z" transform="translate(-27.196 -19.111)" fill="#fff"/>
      </g>
    </g>
  </g>
</svg>
