<svg id="Group_1603" data-name="Group 1603" xmlns="http://www.w3.org/2000/svg" width="54.574" height="29.834" viewBox="0 0 54.574 29.834">
  <path id="Path_10" data-name="Path 10" d="M44.773,57.334H14.793A4.3,4.3,0,0,1,10.5,53.041V31.793A4.3,4.3,0,0,1,14.793,27.5H44.7a4.3,4.3,0,0,1,4.293,4.293V52.968A4.256,4.256,0,0,1,44.773,57.334Z" transform="translate(-10.5 -27.5)"/>
  <path id="Path_11" data-name="Path 11" d="M67.5,36.54V49.492L79.506,56.26A.724.724,0,0,0,80.6,55.6V30.428a.747.747,0,0,0-1.091-.655Z" transform="translate(-26.024 -28.099)"/>
</svg>
