<svg xmlns="http://www.w3.org/2000/svg" width="20.431" height="12.536" viewBox="0 0 20.431 12.536">
  <g id="Group_1777" data-name="Group 1777" transform="translate(-153.691 -16.426)">
    <g id="noun_Video_966159" transform="translate(143.5 -10.5)">
      <g id="Group_1603" data-name="Group 1603" transform="translate(10.5 27.5)">
        <path id="Path_10" data-name="Path 10" d="M23.137,38.5H12.083A1.586,1.586,0,0,1,10.5,36.917V29.083A1.586,1.586,0,0,1,12.083,27.5H23.11a1.586,1.586,0,0,1,1.583,1.583V36.89A1.569,1.569,0,0,1,23.137,38.5Z" transform="translate(-10.5 -27.5)" fill="#616161"/>
        <path id="Path_11" data-name="Path 11" d="M67.5,32.222V37l4.427,2.5a.267.267,0,0,0,.4-.241V29.969a.275.275,0,0,0-.4-.241Z" transform="translate(-52.207 -29.11)" fill="#616161"/>
      </g>
    </g>
    <rect id="Rectangle_120" data-name="Rectangle 120" width="2" height="19" transform="matrix(0.574, -0.819, 0.819, 0.574, 153.691, 18.064)" fill="#fff"/>
  </g>
</svg>
