<svg xmlns="http://www.w3.org/2000/svg" width="16.934" height="16.934" viewBox="0 0 16.934 16.934">
  <g id="noun_Stop_1093476" transform="translate(-93 -217.601)">
    <g id="Group_1778" data-name="Group 1778" transform="translate(93 217.601)">
      <path id="Path_136" data-name="Path 136" d="M22.467,30.934A8.467,8.467,0,1,0,14,22.467,8.461,8.461,0,0,0,22.467,30.934ZM19.174,20.115a.944.944,0,0,1,.941-.941h4.7a.944.944,0,0,1,.941.941v4.7a.944.944,0,0,1-.941.941h-4.7a.944.944,0,0,1-.941-.941Z" transform="translate(-14 -14)" fill="#fff"/>
    </g>
  </g>
</svg>
