<svg xmlns="http://www.w3.org/2000/svg" width="22.273" height="28.956" viewBox="0 0 22.273 28.956">
  <g id="Group_134" data-name="Group 134" transform="translate(-79 -41)">
    <g id="Group_112" data-name="Group 112" transform="translate(79 41)">
      <g id="noun_File_2044110_000000" transform="translate(0 0)">
        <path id="Path" d="M0,0V5.612H5.612Z" transform="translate(16.418 0.244)" fill="#626262"/>
        <path id="Path-2" data-name="Path" d="M14.361,8.23V0H0V28.956H22.273V8.23Z" transform="translate(0 0)" fill="#626262"/>
      </g>
    </g>
    <g id="noun_PDF_749513" transform="translate(81.359 48.953)">
      <g id="Group_113" data-name="Group 113" transform="translate(0 0)">
        <path id="Path_17" data-name="Path 17" d="M38.783,29.288c-.715-.8-1.421-1.688-2.057-2.489-.3-.379-.587-.74-.855-1.068l-.02-.024a11.226,11.226,0,0,0,.668-2.724c.127-1.753-.068-2.882-.6-3.451a1.316,1.316,0,0,0-1.4-.349,1.85,1.85,0,0,0-1.132,1.3,7.044,7.044,0,0,0,.972,5.42,40.013,40.013,0,0,1-2.083,4.5A9.886,9.886,0,0,0,28.6,32.533c-1.161,1.133-1.632,2.257-1.295,3.085a1.327,1.327,0,0,0,1.286.818A2.426,2.426,0,0,0,29.89,36c1.1-.718,2.534-3.112,3.3-4.5a20.482,20.482,0,0,1,3.964-.778c.362-.035.72-.063,1.066-.082a7.242,7.242,0,0,0,3.6,2.45,3.454,3.454,0,0,0,.631.059,2.116,2.116,0,0,0,1.9-.916,1.358,1.358,0,0,0-.014-1.388c-.585-1.012-2.349-1.57-4.969-1.57C39.179,29.279,38.985,29.282,38.783,29.288Zm-9.622,5.6a1.173,1.173,0,0,1-.572.217.258.258,0,0,1-.059-.006c-.026-.133.068-.706,1-1.615a7.025,7.025,0,0,1,1.642-1.16A9.89,9.89,0,0,1,29.161,34.888ZM34.653,20.9c.1-.3.217-.431.292-.456l0,0c.072.081.379.546.242,2.445a6.8,6.8,0,0,1-.24,1.247A5.266,5.266,0,0,1,34.653,20.9Zm2.376,8.5a22.6,22.6,0,0,0-2.989.493c.466-.931.9-1.875,1.259-2.75q.188.235.383.482c.435.549.924,1.165,1.431,1.767Zm6.154,2.113c.02.034.019.048.014.057a.922.922,0,0,1-.749.251,2.137,2.137,0,0,1-.389-.038,4.418,4.418,0,0,1-1.952-1.158C42.179,30.726,43.016,31.225,43.183,31.514Z" transform="translate(-27.196 -19.111)" fill="#fff"/>
      </g>
    </g>
  </g>
</svg>
