<svg xmlns="http://www.w3.org/2000/svg" width="22.273" height="28.956" viewBox="0 0 22.273 28.956">
  <g id="Group_112" data-name="Group 112" transform="translate(-63 -32.334)">
    <g id="noun_File_2044110_000000" transform="translate(63 32.334)">
      <path id="Path" d="M0,0V5.612H5.612Z" transform="translate(16.418 0.244)" fill="#626262"/>
      <path id="Path-2" data-name="Path" d="M14.36,8.23V0H0V28.956H22.273V8.23Z" transform="translate(0 0)" fill="#626262"/>
    </g>
  </g>
</svg>
