<svg id="iconfinder_group_309042" xmlns="http://www.w3.org/2000/svg" width="47.648" height="32.34" viewBox="0 0 47.648 32.34">
  <g id="Group_11" data-name="Group 11" transform="translate(25.657 0)">
    <g id="Group_9" data-name="Group 9" transform="translate(0 19.404)">
      <path id="Path_4" data-name="Path 4" d="M20.662,14A15.817,15.817,0,0,0,12.9,15.94a20.953,20.953,0,0,1,4.528,5.821l.216.431v4.743H34.891V22.624A15.825,15.825,0,0,0,20.662,14Z" transform="translate(-12.9 -14)" fill="#626262"/>
    </g>
    <g id="Group_10" data-name="Group 10" transform="translate(0.216)">
      <circle id="Ellipse_1" data-name="Ellipse 1" cx="7.546" cy="7.546" r="7.546" fill="#626262"/>
    </g>
  </g>
  <g id="Group_12" data-name="Group 12" transform="translate(0 0)">
    <path id="Path_5" data-name="Path 5" d="M7.468,12.546A7.639,7.639,0,0,1,15.014,5a7.639,7.639,0,0,1,7.546,7.546,7.639,7.639,0,0,1-7.546,7.546A7.639,7.639,0,0,1,7.468,12.546ZM15.014,24.4A14.983,14.983,0,0,0,1,33.028V37.34H29.028V33.028A14.983,14.983,0,0,0,15.014,24.4Z" transform="translate(-1 -5)" fill="#626262"/>
  </g>
</svg>
