<svg xmlns="http://www.w3.org/2000/svg" width="26" height="26" viewBox="0 0 26 26">
  <g id="Group_7" data-name="Group 7" transform="translate(0.5 0.5)">
    <circle id="Oval" cx="12.5" cy="12.5" r="12.5" fill="none" stroke="#28a745" stroke-miterlimit="10" stroke-width="1"/>
    <g id="noun_Conversation_369616" transform="translate(7.143 7.143)">
      <path id="Shape" d="M1.945,10.746a2.6,2.6,0,0,1-1.629.292.122.122,0,0,1-.049-.219,1.862,1.862,0,0,0,.681-.863A3.439,3.439,0,0,1,0,7.61,4.018,4.018,0,0,1,4.254,3.878,4.018,4.018,0,0,1,8.51,7.61a4.019,4.019,0,0,1-4.255,3.732A4.692,4.692,0,0,1,1.945,10.746Zm2.3-7.585a5.338,5.338,0,0,0-.766.049A4.115,4.115,0,0,1,7.682,0a4.008,4.008,0,0,1,4.254,3.72,3.438,3.438,0,0,1-.948,2.346,1.7,1.7,0,0,0,.669.863.122.122,0,0,1-.049.219A2.6,2.6,0,0,1,9.98,6.856a3.9,3.9,0,0,1-.8.352A4.752,4.752,0,0,0,4.243,3.161Z" transform="translate(0.103 0.046)" fill="#28a745"/>
    </g>
  </g>
</svg>
