<svg xmlns="http://www.w3.org/2000/svg" width="22.273" height="29.147" viewBox="0 0 22.273 29.147">
  <g id="Group_131" data-name="Group 131" transform="translate(-79 -40.809)">
    <g id="Group_112" data-name="Group 112" transform="translate(79 41)">
      <g id="noun_File_2044110_000000" transform="translate(0 0)">
        <path id="Path" d="M0,0V5.612H5.612Z" transform="translate(16.418 0.244)" fill="#626262"/>
        <path id="Path-2" data-name="Path" d="M14.361,8.23V0H0V28.956H22.273V8.23Z" transform="translate(0 0)" fill="#626262"/>
      </g>
    </g>
    <text id="x" transform="translate(83.993 62.809)" fill="#fff" font-size="20" font-family="SegoeUI, Segoe UI"><tspan x="0" y="0">x</tspan></text>
  </g>
</svg>
