<svg xmlns="http://www.w3.org/2000/svg" width="25.768" height="21.154" viewBox="0 0 25.768 21.154">
  <g id="Group_1664" data-name="Group 1664" transform="translate(-1339.232 -434.5)">
    <g id="Group_1580" data-name="Group 1580" transform="translate(1339.232 437)">
      <path id="list" d="M2.058,137.516v1.543a.261.261,0,0,1-.257.257H.257a.247.247,0,0,1-.181-.076A.247.247,0,0,1,0,139.059v-1.543a.247.247,0,0,1,.076-.181.247.247,0,0,1,.181-.076H1.8a.261.261,0,0,1,.257.257Zm0-3.086v1.543a.261.261,0,0,1-.257.257H.257a.247.247,0,0,1-.181-.076A.247.247,0,0,1,0,135.973V134.43a.247.247,0,0,1,.076-.181.247.247,0,0,1,.181-.076H1.8a.261.261,0,0,1,.257.257Zm0-3.086v1.543a.261.261,0,0,1-.257.257H.257a.247.247,0,0,1-.181-.076A.247.247,0,0,1,0,132.887v-1.543a.247.247,0,0,1,.076-.181.247.247,0,0,1,.181-.076H1.8a.261.261,0,0,1,.257.257ZM14.4,137.516v1.543a.261.261,0,0,1-.257.257H3.343a.261.261,0,0,1-.257-.257v-1.543a.261.261,0,0,1,.257-.257h10.8a.261.261,0,0,1,.257.257ZM2.058,128.257V129.8a.261.261,0,0,1-.257.257H.257a.247.247,0,0,1-.181-.076A.247.247,0,0,1,0,129.8v-1.543a.247.247,0,0,1,.076-.181A.247.247,0,0,1,.257,128H1.8a.261.261,0,0,1,.257.257ZM14.4,134.43v1.543a.261.261,0,0,1-.257.257H3.343a.261.261,0,0,1-.257-.257V134.43a.261.261,0,0,1,.257-.257h10.8a.261.261,0,0,1,.257.257Zm0-3.086v1.543a.261.261,0,0,1-.257.257H3.343a.261.261,0,0,1-.257-.257v-1.543a.261.261,0,0,1,.257-.257h10.8a.261.261,0,0,1,.257.257Zm0-3.086V129.8a.261.261,0,0,1-.257.257H3.343a.261.261,0,0,1-.257-.257v-1.543A.261.261,0,0,1,3.343,128h10.8a.261.261,0,0,1,.257.257Z" transform="translate(0 -120.662)" fill="#616161"/>
    </g>
    <text id="_" data-name="+" transform="translate(1356 450.5)" fill="#616161" font-size="15" font-family="Roboto-Medium, Roboto" font-weight="500"><tspan x="0" y="0">+</tspan></text>
  </g>
</svg>
