<svg xmlns="http://www.w3.org/2000/svg" width="240.743" height="28.24" viewBox="0 0 240.743 28.24">
  <g id="Group_1663" data-name="Group 1663" transform="translate(-475.41 -160)">
    <g id="note" transform="translate(475.41 163.576)">
      <g id="Group_1718" data-name="Group 1718">
        <rect id="Rectangle_177" data-name="Rectangle 177" width="22" height="14" transform="translate(2.12 2.424)" fill="#fff"/>
        <path id="Path_160" data-name="Path 160" d="M16.475,16.424H10.563L12.8,13.556Z" transform="matrix(0.788, -0.616, 0.616, 0.788, -9.524, 13.258)" fill="#fff"/>
      </g>
      <path id="Path_139" data-name="Path 139" d="M25.268,2.46H4.585A2.585,2.585,0,0,0,2,5.045V17.972a2.585,2.585,0,0,0,2.585,2.585H8.463v6.567l8.208-6.567h8.6a2.585,2.585,0,0,0,2.585-2.585V5.045A2.585,2.585,0,0,0,25.268,2.46Zm0,15.512h-9.5l-4.718,3.775V17.972H4.585V5.045H25.268Z" transform="translate(-2 -2.46)" fill="#8c8c8c"/>
      <path id="Path_140" data-name="Path 140" d="M21.512,9.045H6V6.46H21.512ZM18.28,14.216H6V11.631H18.28Z" transform="translate(-0.829 -1.289)" fill="#8c8c8c"/>
    </g>
    <g id="Group_1636" data-name="Group 1636" transform="translate(514.187 162.585)">
      <rect id="Rectangle_164" data-name="Rectangle 164" width="19.39" height="19.39" transform="translate(2.202 1.293)" fill="#fff"/>
      <g id="rectangle" transform="translate(0 0)">
        <path id="Path_141" data-name="Path 141" d="M24.1,3.8H5.227A2.317,2.317,0,0,0,2.9,6.129V22.675A2.317,2.317,0,0,0,5.227,25h19a2.317,2.317,0,0,0,2.327-2.327V6.129A2.346,2.346,0,0,0,24.1,3.8ZM5.744,22.158V6.646H23.582V22.158Z" transform="translate(-2.9 -3.792)" fill="#8c8c8c"/>
        <rect id="Rectangle_150" data-name="Rectangle 150" width="17.839" height="15.512" transform="translate(2.844 2.854)" fill="none"/>
      </g>
    </g>
    <g id="circle" transform="translate(550.772 161.68)">
      <path id="Path_145" data-name="Path 145" d="M14.692,2.8A11.892,11.892,0,1,0,26.585,14.692,11.861,11.861,0,0,0,14.692,2.8Zm0,20.682a8.919,8.919,0,1,1,8.919-8.919h0a8.775,8.775,0,0,1-8.919,8.919Z" transform="translate(-2.8 -2.8)" fill="#8c8c8c"/>
      <path id="Path_146" data-name="Path 146" d="M14.019,22.839a8.919,8.919,0,1,1,8.919-8.919h0a8.775,8.775,0,0,1-8.919,8.919Z" transform="translate(-2.127 -2.156)" fill="#fff"/>
    </g>
    <g id="free-text" transform="translate(697.034 164.348)">
      <path id="Path_138" data-name="Path 138" d="M23.718,4.89V8.6a.556.556,0,0,1-.5.465h-1.06a.53.53,0,0,1-.517-.53v-1.4H15.9V21.992h1.991a.53.53,0,0,1,.53.53v1.047a.53.53,0,0,1-.53.53h-7.42a.53.53,0,0,1-.53-.53V22.522a.53.53,0,0,1,.53-.53h1.991V7.139h-5.7V8.6a.53.53,0,0,1-.53.465H5.117A.556.556,0,0,1,4.6,8.548V4.89a.53.53,0,0,1,.517-.53h18.1a.5.5,0,0,1,.5.53Z" transform="translate(-4.6 -4.36)" fill="#8c8c8c"/>
    </g>
    <g id="highlighter" transform="translate(662.47 160)">
      <path id="Path_147" data-name="Path 147" d="M11.748,15.724h4.99L14.243,9.765Zm7.058,4.757-.969-2.262h-7.2L8.982,22.1H6.215L12.446,7.413a1.293,1.293,0,0,1,1.293-.827h1.293a1.59,1.59,0,0,1,1.293.827l2.585,6.347V4H6.5A2.87,2.87,0,0,0,3.63,6.87V21.813a2.87,2.87,0,0,0,2.87,2.87H18.806Z" transform="translate(-3.63 -1.415)" fill="#8c8c8c"/>
      <path id="Path_148" data-name="Path 148" d="M20.955,2V27.853H18.37V2Z" transform="translate(0.684 -2)" fill="#8c8c8c"/>
    </g>
    <g id="pencil" transform="translate(618.699 161.681)">
      <path id="Path_149" data-name="Path 149" d="M23.7,20.355a1.465,1.465,0,0,1-1.745,2.353,7.523,7.523,0,0,0-2.7-1.293c-4.162-1.1-5.907-.375-8.816.814l-.711.3a9.591,9.591,0,0,1-3.464.853,3.878,3.878,0,0,1-2.585-.892A3.077,3.077,0,0,1,2.55,20.342a2.34,2.34,0,0,1,.763-1.758,11.84,11.84,0,0,1,1.2-1.008A1.465,1.465,0,0,1,6.26,19.928a3.787,3.787,0,0,0-.543.427c.349.168,1.086.22,2.908-.517l.711-.336A13.974,13.974,0,0,1,20,18.571a10.2,10.2,0,0,1,3.7,1.784Z" transform="translate(-2.55 2.461)" fill="#8c8c8c"/>
      <rect id="Rectangle_175" data-name="Rectangle 175" width="11" height="4" transform="matrix(0.719, -0.695, 0.695, 0.719, 7.474, 13.908)" fill="#fff"/>
      <rect id="Rectangle_176" data-name="Rectangle 176" width="4" height="4" transform="matrix(0.719, -0.695, 0.695, 0.719, 16.509, 5.046)" fill="#fff"/>
      <path id="Path_150" data-name="Path 150" d="M26.006,6.871a2.7,2.7,0,0,1-.8,1.952L13.364,20.663c-.116.1-.336.336-.569.336,0,0-5.4,1.163-5.714,1.15a1.293,1.293,0,0,1-.931-.168.866.866,0,0,1-.207-.944l1.034-5.856c0-.233.1-.349.336-.582l7.769-7.691,4.136-4.136a2.844,2.844,0,0,1,3.878,0l2.146,2.146a3.025,3.025,0,0,1,.763,1.952Zm-6.773,4.253L16.854,8.745,9.382,16.216l2.378,2.378Zm4.136-4.136-2.378-2.4-2.185,2.21,2.378,2.378Z" transform="translate(-1.574 -2.009)" fill="#8c8c8c"/>
    </g>
    <path id="arrow" d="M17.511,8.328,5.14,20.7a.789.789,0,0,0,0,1.1L6.33,22.987a.789.789,0,0,0,1.1,0L19.8,10.616l2.107,2.146a.776.776,0,0,0,1.293-.543V5.756a.776.776,0,0,0-.776-.776H15.96a.776.776,0,0,0-.543,1.293Z" transform="translate(582.569 160.124)" fill="#8c8c8c"/>
  </g>
</svg>
