<svg xmlns="http://www.w3.org/2000/svg" width="18" height="16" viewBox="0 0 18 16">
  <g id="Group_6" data-name="Group 6" transform="translate(-612.5 -973.5)">
    <line id="Line_1" data-name="Line 1" x2="16" transform="translate(613.5 974.5)" fill="none" stroke="#a3a3a3" stroke-linecap="round" stroke-width="2"/>
    <line id="Line_2" data-name="Line 2" x2="16" transform="translate(613.5 981.5)" fill="none" stroke="#a3a3a3" stroke-linecap="round" stroke-width="2"/>
    <line id="Line_3" data-name="Line 3" x2="16" transform="translate(613.5 988.5)" fill="none" stroke="#a3a3a3" stroke-linecap="round" stroke-width="2"/>
  </g>
</svg>
