<svg xmlns="http://www.w3.org/2000/svg" width="19.538" height="21.587" viewBox="0 0 19.538 21.587">
  <g id="Tool-Rotate" transform="translate(-396.664 -546.904)">
    <g id="Group_1732" data-name="Group 1732">
      <path id="view-controls" d="M14.52,6.389V6.356a.554.554,0,0,0-.132-.191L10.428,2.2a.759.759,0,0,0-.191-.132h-.066A.521.521,0,0,0,9.979,2H5.32A1.32,1.32,0,0,0,4,3.32V13.88A1.32,1.32,0,0,0,5.32,15.2h7.92a1.32,1.32,0,0,0,1.32-1.32V6.58a.66.66,0,0,0-.04-.165Z" transform="translate(401.482 547.365) rotate(30)" fill="#fff"/>
      <path id="view-controls-2" data-name="view-controls" d="M14.52,6.389V6.356a.554.554,0,0,0-.132-.191L10.428,2.2a.759.759,0,0,0-.191-.132h-.066A.521.521,0,0,0,9.979,2H5.32A1.32,1.32,0,0,0,4,3.32V13.88A1.32,1.32,0,0,0,5.32,15.2h7.92a1.32,1.32,0,0,0,1.32-1.32V6.58a.66.66,0,0,0-.04-.165ZM13.24,13.88H5.32V3.32H9.28l3.96,3.96Z" transform="translate(401.482 547.365) rotate(30)" fill="#8c8c8c" stroke="#8c8c8c" stroke-width="1"/>
    </g>
    <g id="Group_1634" data-name="Group 1634" transform="translate(481.322 1023.288) rotate(-135)">
      <line id="Line_44" data-name="Line 44" x1="1.539" y2="1.539" transform="translate(381 283)" fill="none" stroke="#8c8c8c" stroke-linecap="round" stroke-width="2"/>
      <line id="Line_45" data-name="Line 45" x1="1.539" y1="1.539" transform="translate(381 284.539)" fill="none" stroke="#8c8c8c" stroke-linecap="round" stroke-width="2"/>
    </g>
    <path id="Path_151" data-name="Path 151" d="M-17111.459-13452.234c3.113-4.92,10.943-3.521,12.734,0" transform="translate(17510.168 14003.332)" fill="none" stroke="#8c8c8c" stroke-linecap="round" stroke-width="2" stroke-dasharray="1 3"/>
  </g>
</svg>
