<svg xmlns="http://www.w3.org/2000/svg" width="20" height="20" viewBox="0 0 20 20">
  <g id="Tool-ZoomIn" transform="translate(-360 -160)">
    <circle id="Ellipse_15" data-name="Ellipse 15" cx="9" cy="9" r="9" transform="translate(361 162)" fill="#fff"/>
    <path id="zoom-in" d="M13,11h4v2H13v4H11V13H7V11h4V7h2Zm9,1A10,10,0,1,1,12,2,10,10,0,0,1,22,12Zm-2,0a8,8,0,1,0-8,8A8,8,0,0,0,20,12Z" transform="translate(358 158)" fill="#8c8c8c"/>
  </g>
</svg>
