<svg xmlns="http://www.w3.org/2000/svg" width="14.791" height="15.27" viewBox="0 0 14.791 15.27">
  <g id="Tool-Text" transform="translate(146.544 -3.36)">
    <path id="Path_138" data-name="Path 138" d="M19.39,4.77V7.64A.43.43,0,0,1,19,8h-.82a.41.41,0,0,1-.4-.41V6.51H13.34V18h1.54a.41.41,0,0,1,.41.41v.81a.41.41,0,0,1-.41.41H9.14a.41.41,0,0,1-.41-.41v-.81A.41.41,0,0,1,9.14,18h1.54V6.51H6.27V7.64A.41.41,0,0,1,5.86,8H5a.43.43,0,0,1-.4-.4V4.77A.41.41,0,0,1,5,4.36H19a.39.39,0,0,1,.39.41Z" transform="translate(-151.144 -1)" fill="#8c8c8c"/>
  </g>
</svg>
