<svg xmlns="http://www.w3.org/2000/svg" width="18.9" height="19.992" viewBox="0 0 18.9 19.992">
  <g id="Tool-Pencil" transform="translate(166.048 -1.009)">
    <g id="Group_1750" data-name="Group 1750" transform="translate(-168.598 -1)">
      <path id="Path_149" data-name="Path 149" d="M18.91,19.66a1.133,1.133,0,0,1-1.35,1.82,5.82,5.82,0,0,0-2.09-1c-3.22-.85-4.57-.29-6.82.63l-.55.23A7.42,7.42,0,0,1,5.42,22a3,3,0,0,1-2-.69,2.38,2.38,0,0,1-.87-1.66,1.81,1.81,0,0,1,.59-1.36,9.16,9.16,0,0,1,.93-.78,1.133,1.133,0,0,1,1.35,1.82,2.93,2.93,0,0,0-.42.33c.27.13.84.17,2.25-.4L7.8,19a10.81,10.81,0,0,1,8.25-.72,7.89,7.89,0,0,1,2.86,1.38Z" fill="#8c8c8c"/>
      <rect id="Rectangle_179" data-name="Rectangle 179" width="13.25" height="4" transform="translate(7.922 12.727) rotate(-45)" fill="#fff"/>
      <path id="Path_150" data-name="Path 150" d="M21.45,5.77a2.09,2.09,0,0,1-.62,1.51l-9.16,9.16c-.09.08-.26.26-.44.26,0,0-4.18.9-4.42.89a1,1,0,0,1-.72-.13.67.67,0,0,1-.16-.73l.8-4.53c0-.18.08-.27.26-.45L13,5.8l3.2-3.2a2.2,2.2,0,0,1,3,0l1.66,1.66a2.34,2.34,0,0,1,.59,1.51ZM16.21,9.06,14.37,7.22,8.59,13l1.84,1.84Zm3.2-3.2L17.57,4,15.88,5.71l1.84,1.84Z" fill="#8c8c8c"/>
    </g>
  </g>
</svg>
