{
  "providers": {
    "awscloudformation": {
      "AuthRoleName": "amplify-sibmechat-dev-164602-authRole",
      "UnauthRoleArn": "arn:aws:iam::500912155925:role/amplify-sibmechat-dev-164602-unauthRole",
      "AuthRoleArn": "arn:aws:iam::500912155925:role/amplify-sibmechat-dev-164602-authRole",
      "Region": "us-east-1",
      "DeploymentBucketName": "amplify-sibmechat-dev-164602-deployment",
      "UnauthRoleName": "amplify-sibmechat-dev-164602-unauthRole",
      "StackName": "amplify-sibmechat-dev-164602",
      "StackId": "arn:aws:cloudformation:us-east-1:500912155925:stack/amplify-sibmechat-dev-164602/87f88500-87df-11eb-ae84-12c9a8da122f",
      "AmplifyAppId": "d1qu9985rbbyww"
    }
  },
  "api": {
    "sibmechat": {
      "service": "AppSync",
      "providerPlugin": "awscloudformation",
      "output": {
        "authConfig": {
          "defaultAuthentication": {
            "authenticationType": "API_KEY",
            "apiKeyConfig": {
              "apiKeyExpirationDays": 90,
              "description": "90"
            }
          },
          "additionalAuthenticationProviders": []
        },
        "GraphQLAPIIdOutput": "ytexx2qfnzgqldpta6ihu6khtq",
        "GraphQLAPIEndpointOutput": "https://c7zu5766vnfobes6fldjwspdvq.appsync-api.us-east-1.amazonaws.com/graphql",
        "GraphQLAPIKeyOutput": "da2-rjvizb7sqjhrvdrhrcqzubg2ka"
      },
      "providerMetadata": {
        "s3TemplateURL": "https://s3.amazonaws.com/amplify-sibmechat-dev-164602-deployment/amplify-cfn-templates/api/cloudformation-template.json",
        "logicalId": "apisibmechat"
      },
      "lastPushTimeStamp": "2021-03-29T21:34:00.573Z",
      "lastPushDirHash": "HjUm76rXFoNQmO/nhufJvRmndZI="
    }
  }
}