<svg xmlns="http://www.w3.org/2000/svg" width="6.613" height="6.613" viewBox="0 0 6.613 6.613">
  <g id="Group_1501" data-name="Group 1501" transform="translate(-273.903 -838.651)">
    <path id="Path_99" data-name="Path 99" d="M-3255.055-10297.992l4.5-4.034" transform="translate(3530.016 11141.966)" fill="none" stroke="#d35959" stroke-linecap="round" stroke-linejoin="round" stroke-width="1.5"/>
    <path id="Path_116" data-name="Path 116" d="M0,4.035,4.5,0" transform="translate(275.192 844.206) rotate(-90)" fill="none" stroke="#d35959" stroke-linecap="round" stroke-linejoin="round" stroke-width="1.5"/>
  </g>
</svg>
