<svg xmlns="http://www.w3.org/2000/svg" width="5.745" height="10.281" viewBox="0 0 5.745 10.281">
  <path id="Path" d="M5.59.14a.505.505,0,0,0-.7,0L.143,4.8A.566.566,0,0,0,0,5.125H0v.016H0v.016H0v.016H0a.521.521,0,0,0,.143.312l4.749,4.658a.505.505,0,0,0,.7,0,.474.474,0,0,0,0-.7l-4.383-4.3L5.59.841A.474.474,0,0,0,5.59.14Z" transform="translate(5.745 10.281) rotate(180)" fill="#1688c2"/>
</svg>
