<svg xmlns="http://www.w3.org/2000/svg" width="63.693" height="63.703" viewBox="0 0 63.693 63.703">
  <g id="noun_check_list_1197924" data-name="noun_check list_1197924" transform="translate(-172.25 65.75)">
    <g id="Group_832" data-name="Group 832" transform="translate(173 -65)">
      <path id="Path_24" data-name="Path 24" d="M7.588,959.366a.723.723,0,0,0-.588.723v17.358a.723.723,0,0,0,.723.723H25.079a.723.723,0,0,0,.723-.723V960.089a.724.724,0,0,0-.723-.723H7.723a.74.74,0,0,0-.136,0Zm.859,1.446h15.91v15.912H8.446Zm11.5,4.317a.722.722,0,0,0-.475.271l-4.542,5.2-1.627-1.627a.727.727,0,1,0-1.04,1.017l2.17,2.17a.723.723,0,0,0,1.062-.022l5.062-5.786a.723.723,0,0,0-.61-1.221Zm10.78,2.916a.726.726,0,1,0,.136,1.446h37.6a.723.723,0,0,0,0-1.447h-37.6a.7.7,0,0,0-.136,0ZM7.588,981.063a.723.723,0,0,0-.588.723v17.358a.723.723,0,0,0,.723.723H25.079a.723.723,0,0,0,.723-.723V981.786a.723.723,0,0,0-.723-.723H7.723a.74.74,0,0,0-.136,0Zm.859,1.446h15.91v15.912H8.446Zm11.5,4.317a.722.722,0,0,0-.475.271l-4.542,5.2-1.627-1.627a.727.727,0,0,0-1.04,1.017l2.17,2.17a.723.723,0,0,0,1.062-.022l5.062-5.786a.723.723,0,0,0-.61-1.221Zm10.78,2.916a.726.726,0,0,0,.136,1.447h37.6a.723.723,0,0,0,0-1.447h-37.6a.74.74,0,0,0-.136,0ZM7.588,1002.761a.723.723,0,0,0-.588.723v17.358a.723.723,0,0,0,.723.723H25.079a.724.724,0,0,0,.723-.723v-17.358a.723.723,0,0,0-.723-.723H7.723A.74.74,0,0,0,7.588,1002.761Zm.859,1.446h15.91v15.912H8.446Zm11.5,4.317a.722.722,0,0,0-.475.271l-4.542,5.2-1.627-1.627a.727.727,0,1,0-1.04,1.017l2.17,2.17a.723.723,0,0,0,1.062-.022l5.062-5.786a.723.723,0,0,0-.61-1.22Zm10.78,2.915a.727.727,0,0,0,.136,1.447h37.6a.723.723,0,0,0,0-1.447h-37.6a.74.74,0,0,0-.136,0Z" transform="translate(-7 -959.363)" fill="#28a745" stroke="#28a745" stroke-width="1.5"/>
    </g>
  </g>
</svg>
