<svg xmlns="http://www.w3.org/2000/svg" width="57" height="46.707" viewBox="0 0 57 46.707">
  <g id="Group_1634" data-name="Group 1634" transform="translate(-922 -248)">
    <g id="Group_1627" data-name="Group 1627" transform="translate(922 248)">
      <circle id="Ellipse_5" data-name="Ellipse 5" cx="22.478" cy="22.478" r="22.478" fill="#e3edfd"/>
      <g id="iconfinder_group_309042" transform="translate(12.783 13.465)">
        <g id="Group_11" data-name="Group 11" transform="translate(11.013 0)">
          <g id="Group_9" data-name="Group 9" transform="translate(0 8.33)">
            <path id="Path_4" data-name="Path 4" d="M16.232,14a6.789,6.789,0,0,0-3.332.833,8.995,8.995,0,0,1,1.944,2.5l.093.185v2.036h7.4V17.7A6.793,6.793,0,0,0,16.232,14Z" transform="translate(-12.9 -14)" fill="#2a87ea"/>
          </g>
          <g id="Group_10" data-name="Group 10" transform="translate(0.093)">
            <circle id="Ellipse_1" data-name="Ellipse 1" cx="3.239" cy="3.239" r="3.239" fill="#2a87ea"/>
          </g>
        </g>
        <g id="Group_12" data-name="Group 12" transform="translate(0 0)">
          <path id="Path_5" data-name="Path 5" d="M3.777,8.239A3.279,3.279,0,0,1,7.016,5a3.239,3.239,0,0,1,0,6.479A3.279,3.279,0,0,1,3.777,8.239Zm3.239,5.09A6.432,6.432,0,0,0,1,17.032v1.851H13.032V17.032A6.432,6.432,0,0,0,7.016,13.33Z" transform="translate(-1 -5)" fill="#2a87ea"/>
        </g>
      </g>
    </g>
    <g id="Group_1626" data-name="Group 1626" transform="translate(956.878 272.548)">
      <g id="Ellipse_4" data-name="Ellipse 4" transform="translate(0.122 0.159)" fill="#2a87ea" stroke="#fff" stroke-width="2">
        <circle cx="11" cy="11" r="11" stroke="none"/>
        <circle cx="11" cy="11" r="10" fill="none"/>
      </g>
      <g id="Group_1625" data-name="Group 1625" transform="translate(8.066 7.66)">
        <line id="Line_4" data-name="Line 4" y2="6.71" transform="translate(4.697)" fill="none" stroke="#fff" stroke-linecap="round" stroke-width="1"/>
        <line id="Line_10" data-name="Line 10" y2="6.71" transform="translate(2.013)" fill="none" stroke="#fff" stroke-linecap="round" stroke-width="1"/>
        <line id="Line_9" data-name="Line 9" x1="6.71" transform="translate(0 4.697)" fill="none" stroke="#fff" stroke-linecap="round" stroke-width="1"/>
        <line id="Line_11" data-name="Line 11" x1="6.71" transform="translate(0 2.013)" fill="none" stroke="#fff" stroke-linecap="round" stroke-width="1"/>
      </g>
    </g>
  </g>
</svg>
