<svg xmlns="http://www.w3.org/2000/svg" width="79" height="65" viewBox="0 0 79 65">
  <g id="Group_1843" data-name="Group 1843" transform="translate(-922.482 -248)">
    <g id="Group_1627" data-name="Group 1627" transform="translate(922 248)">
      <circle id="Ellipse_5" data-name="Ellipse 5" cx="31.423" cy="31.423" r="31.423" transform="translate(0.482)" fill="#fff"/>
      <g id="stats" transform="translate(15.482 -15.932)">
        <g id="Group_1845" data-name="Group 1845" transform="translate(0 32.932)">
          <path id="Path_585" data-name="Path 585" d="M33.348,32.932a3.567,3.567,0,0,0-2.32,6.278l-6.59,11.025a3.558,3.558,0,0,0-2.176-.066L16.632,44.13a3.57,3.57,0,1,0-5.7,1.061L4.075,58A3.574,3.574,0,1,0,6.09,59.006l6.88-12.848a3.6,3.6,0,0,0,.431.027,3.547,3.547,0,0,0,1.678-.42l5.312,5.7a3.57,3.57,0,1,0,5.834.173l6.916-11.57c.069,0,.138.007.208.007a3.569,3.569,0,0,0,0-7.139ZM3.569,62.849a1.318,1.318,0,1,1,1.318-1.318A1.32,1.32,0,0,1,3.569,62.849ZM13.4,43.933a1.318,1.318,0,1,1,1.318-1.318A1.32,1.32,0,0,1,13.4,43.933Zm9.846,10.984A1.318,1.318,0,1,1,24.565,53.6,1.32,1.32,0,0,1,23.247,54.918Zm10.1-17.1A1.318,1.318,0,1,1,34.667,36.5,1.32,1.32,0,0,1,33.348,37.82Z" transform="translate(-2.049 -34.717)" fill="#004061"/>
        </g>
      </g>
    </g>
    <g id="Group_1626" data-name="Group 1626" transform="translate(970.934 282.262)">
      <g id="Ellipse_4" data-name="Ellipse 4" transform="translate(-0.451 -0.262)" fill="#004061" stroke="#e3e3e3" stroke-width="3">
        <circle cx="15.5" cy="15.5" r="15.5" stroke="none"/>
        <circle cx="15.5" cy="15.5" r="14" fill="none"/>
      </g>
      <g id="Group_1625" data-name="Group 1625" transform="translate(11.098 10.762)">
        <g id="Group_1844" data-name="Group 1844" transform="translate(-1 -3)">
          <line id="Line_10" data-name="Line 10" y2="9.38" transform="translate(4.814 3)" fill="none" stroke="#fff" stroke-linecap="round" stroke-width="2"/>
          <line id="Line_9" data-name="Line 9" x1="9.38" transform="translate(0 7.566)" fill="none" stroke="#fff" stroke-linecap="round" stroke-width="2"/>
        </g>
      </g>
    </g>
  </g>
</svg>
