<svg xmlns="http://www.w3.org/2000/svg" xmlns:xlink="http://www.w3.org/1999/xlink" viewBox="0 0 410.912 74.376">
  <defs>
    <style>
      .cls-1 {
        fill: none;
      }

      .cls-2 {
        clip-path: url(#clip-path);
      }

      .cls-3 {
        fill: #808184;
      }

      .cls-4 {
        fill: #4c4c4e;
      }

      .cls-5 {
        fill: #fcb813;
      }

      .cls-6 {
        fill: #58595b;
      }
    </style>
    <clipPath id="clip-path">
      <path id="Clip_2" data-name="Clip 2" class="cls-1" d="M37.188,0A37.188,37.188,0,0,0,0,37.188H0A37.188,37.188,0,0,0,37.188,74.376H373.724a37.188,37.188,0,0,0,37.188-37.188h0A37.188,37.188,0,0,0,373.724,0h0" transform="translate(0 0.352)"/>
    </clipPath>
  </defs>
  <g id="login_logo" transform="translate(0 -0.733)">
    <g id="Group_3" data-name="Group 3" transform="translate(0 0.381)">
      <path id="Clip_2-2" data-name="Clip 2" class="cls-1" d="M37.188,0A37.188,37.188,0,0,0,0,37.188H0A37.188,37.188,0,0,0,37.188,74.376H373.724a37.188,37.188,0,0,0,37.188-37.188h0A37.188,37.188,0,0,0,373.724,0h0" transform="translate(0 0.352)"/>
      <g id="Group_3-2" data-name="Group 3" class="cls-2">
        <path id="Fill_1" data-name="Fill 1" class="cls-3" d="M.092,53.816a.275.275,0,1,0,.549,0V.275a.275.275,0,1,0-.549,0" transform="translate(64.908 12.074)"/>
      </g>
    </g>
    <g id="Group_6" data-name="Group 6" transform="translate(12 39.381)">
      <path id="Fill_4" data-name="Fill 4" class="cls-4" d="M30,11.624H27.67V0H30V4.7h4.664V0h2.331V11.622H34.663V6.528H30v5.095Zm-15.783,0h-2.23V0h3.73l2.765,8.806h.032L21.277,0h3.73V11.622H22.775V2.03h-.033l-3.13,9.592H17.381L14.251,2.03l-.034.033v9.559Zm-11.886,0H0V0H2.33V4.7H6.993V0H9.324V11.622H6.993V6.528H2.33v5.095Z" transform="translate(0.178 0.793)"/>
    </g>
    <g id="Group_9" data-name="Group 9" transform="translate(24 22.381)">
      <path id="Fill_7" data-name="Fill 7" class="cls-5" d="M8.5,12.188h0c-1.621,0-3.753-1.125-5.563-2.935A10.864,10.864,0,0,1,.273,5.2C-.175,3.856-.073,2.766.562,2.133a1.922,1.922,0,0,1,1.052-.518l.013,0,.029-.005.018,0a3,3,0,0,1,.447-.032c1.622,0,3.752,1.124,5.56,2.934,2.013,2.012,3.175,4.451,2.893,6.069a1.921,1.921,0,0,1-.517,1.053A2.116,2.116,0,0,1,8.5,12.188Zm11.507,0A6.094,6.094,0,1,1,26.1,6.094,6.1,6.1,0,0,1,20,12.188Z" transform="translate(0.264 0.465)"/>
    </g>
    <g id="Group_12" data-name="Group 12" transform="translate(10 22.381)">
      <path id="Fill_10" data-name="Fill 10" class="cls-3" d="M13.906,12.052H0L7.006,0l6.9,12.05Zm9.943-1.323h0c.284-1.617-.878-4.055-2.892-6.069-1.81-1.81-3.94-2.934-5.561-2.934a3,3,0,0,0-.447.032L25.646.04l-1.8,10.688Z" transform="translate(0.989 0.312)"/>
    </g>
    <g id="Group_15" data-name="Group 15" transform="translate(80 21.381)">
      <path id="Fill_13" data-name="Fill 13" class="cls-6" d="M0,14.934A14.558,14.558,0,0,1,14.934,0,14.3,14.3,0,0,1,27.283,6.769L22.4,9.6a8.289,8.289,0,0,0-7.467-4.1c-5.621,0-9.313,3.9-9.313,9.436,0,5.5,3.692,9.4,9.313,9.4A8.292,8.292,0,0,0,22.4,20.267L27.283,23.1a14.2,14.2,0,0,1-12.349,6.769A14.582,14.582,0,0,1,0,14.934" transform="translate(0.353 0.694)"/>
    </g>
    <g id="Group_18" data-name="Group 18" transform="translate(109 29.381)">
      <path id="Fill_16" data-name="Fill 16" class="cls-6" d="M10.832,21.662A10.716,10.716,0,0,1,0,10.832,10.716,10.716,0,0,1,10.832,0a10.858,10.858,0,0,1,7.7,3.123A10.748,10.748,0,0,1,21.7,10.832a10.747,10.747,0,0,1-3.174,7.708A10.859,10.859,0,0,1,10.832,21.662Zm0-16.492A5.5,5.5,0,0,0,6.892,6.754a5.712,5.712,0,0,0-1.6,4.077,5.712,5.712,0,0,0,1.6,4.077,5.5,5.5,0,0,0,3.939,1.585,5.557,5.557,0,0,0,3.974-1.585,5.7,5.7,0,0,0,1.6-4.077,5.7,5.7,0,0,0-1.6-4.077A5.558,5.558,0,0,0,10.832,5.17Z" transform="translate(0.933 0.899)"/>
    </g>
    <g id="Group_21" data-name="Group 21" transform="translate(134 29.381)">
      <path id="Fill_19" data-name="Fill 19" class="cls-6" d="M9.969,21.662a9.546,9.546,0,0,1-7.031-3.123A11.233,11.233,0,0,1,0,10.832,11.234,11.234,0,0,1,2.938,3.123,9.545,9.545,0,0,1,9.969,0a8.22,8.22,0,0,1,6.688,3V.574h5.292V21.088H16.657V18.667A8.22,8.22,0,0,1,9.969,21.662Zm.985-16.616a5.637,5.637,0,0,0-4.046,1.6,5.857,5.857,0,0,0-1.616,4.185,5.855,5.855,0,0,0,1.616,4.184,5.638,5.638,0,0,0,4.046,1.6,5.7,5.7,0,0,0,4.083-1.6,5.838,5.838,0,0,0,1.621-4.184,5.84,5.84,0,0,0-1.621-4.185A5.7,5.7,0,0,0,10.954,5.046Z" transform="translate(0.303 0.899)"/>
    </g>
    <g id="Group_24" data-name="Group 24" transform="translate(159 29.381)">
      <path id="Fill_22" data-name="Fill 22" class="cls-6" d="M0,10.831A10.594,10.594,0,0,1,10.831,0a10.325,10.325,0,0,1,9.19,5.292L15.467,7.959A5.072,5.072,0,0,0,10.79,5.21a5.379,5.379,0,0,0-5.5,5.621,5.368,5.368,0,0,0,5.5,5.58A5.059,5.059,0,0,0,15.508,13.7L20.1,16.329a10.507,10.507,0,0,1-9.272,5.333A10.593,10.593,0,0,1,0,10.831" transform="translate(0.986 0.899)"/>
    </g>
    <g id="Group_27" data-name="Group 27" transform="translate(182 22.381)">
      <path id="Fill_25" data-name="Fill 25" class="cls-6" d="M19.159,16.124V28.718H13.867V16.78c0-2.79-1.682-4.226-4.062-4.226-2.585,0-4.513,1.518-4.513,5.087V28.718H0V0H5.292V10.5a6.974,6.974,0,0,1,6.113-2.872c4.349,0,7.754,3.036,7.754,8.493" transform="translate(0.878 0.269)"/>
    </g>
    <path id="Fill_28" data-name="Fill 28" class="cls-6" d="M5.909,29.5H.616V8.985H5.909V29.5ZM3.241,6.523A3.284,3.284,0,0,1,0,3.282,3.305,3.305,0,0,1,3.241,0,3.326,3.326,0,0,1,6.523,3.282a3.2,3.2,0,0,1-.964,2.282A3.275,3.275,0,0,1,3.241,6.523Z" transform="translate(205.935 21.87)"/>
    <path id="Fill_30" data-name="Fill 30" class="cls-6" d="M19.159,8.493V21.087H13.866V9.149c0-2.79-1.682-4.226-4.062-4.226-2.584,0-4.513,1.518-4.513,5.087V21.087H0V.574H5.292v2.3A6.976,6.976,0,0,1,11.405,0c4.349,0,7.754,3.036,7.754,8.493" transform="translate(216.684 30.281)"/>
    <path id="Fill_31" data-name="Fill 31" class="cls-6" d="M11.241,29.867c-4.517,0-7.97-1.777-9.723-5l4.513-2.586a5.1,5.1,0,0,0,1.826,2.037,6.633,6.633,0,0,0,3.549.836,5.679,5.679,0,0,0,3.933-1.308A4.918,4.918,0,0,0,16.78,20.1V17.888a7.832,7.832,0,0,1-6.564,3.118A10.252,10.252,0,0,1,0,10.5,10.641,10.641,0,0,1,2.923,3.1,10,10,0,0,1,10.216,0,7.833,7.833,0,0,1,16.78,3.118V.574h5.17V20.1a9.1,9.1,0,0,1-3.323,7.405A11.815,11.815,0,0,1,11.241,29.867ZM11.036,4.923A5.478,5.478,0,0,0,5.292,10.5a5.568,5.568,0,0,0,1.626,4.041,5.833,5.833,0,0,0,4.118,1.58,5.833,5.833,0,0,0,4.118-1.58A5.568,5.568,0,0,0,16.78,10.5,5.478,5.478,0,0,0,11.036,4.923Z" transform="translate(239.289 30.281)"/>
    <path id="Fill_32" data-name="Fill 32" class="cls-6" d="M0,22.77l4.841-2.831a6.442,6.442,0,0,0,6.605,4.39c3.405,0,4.595-1.436,4.595-3.037,0-2.133-1.928-2.953-6.2-4.185C5.457,15.836,1.19,13.99,1.19,8.534,1.19,3.118,5.7,0,10.626,0A10.917,10.917,0,0,1,20.883,6.441L16.124,9.19a5.645,5.645,0,0,0-5.5-3.692c-2.38,0-3.774,1.231-3.774,2.872,0,1.764,1.107,2.708,5.456,4.021,4.555,1.436,9.4,2.954,9.4,8.821,0,5.375-4.308,8.657-10.421,8.657-5.866,0-9.723-2.831-11.282-7.1" transform="translate(275.065 22.076)"/>
    <path id="Fill_33" data-name="Fill 33" class="cls-6" d="M8.863,10.831v8.533c0,2.216,1.6,2.257,4.636,2.093v4.8c-7.427.821-9.929-1.354-9.929-6.893V10.831H0V5.744H3.569V1.6L8.863,0V5.744H13.5v5.087Z" transform="translate(297.834 25.111)"/>
    <path id="Fill_34" data-name="Fill 34" class="cls-6" d="M19.159,0V20.513H13.866v-2.3a6.972,6.972,0,0,1-6.112,2.872C3.4,21.088,0,18.052,0,12.6V0H5.292V11.938c0,2.791,1.682,4.226,4.062,4.226,2.585,0,4.513-1.518,4.513-5.087V0Z" transform="translate(315.066 30.855)"/>
    <path id="Fill_35" data-name="Fill 35" class="cls-6" d="M10.011,29.293A9.6,9.6,0,0,1,2.944,26.17,11.215,11.215,0,0,1,0,18.462a11.214,11.214,0,0,1,2.944-7.708,9.6,9.6,0,0,1,7.067-3.123,7.984,7.984,0,0,1,6.647,3V0h5.292V28.719H16.657V26.3A7.985,7.985,0,0,1,10.011,29.293Zm.984-16.616a5.7,5.7,0,0,0-4.082,1.6,5.839,5.839,0,0,0-1.621,4.184,5.84,5.84,0,0,0,1.621,4.185,5.7,5.7,0,0,0,4.082,1.6,5.639,5.639,0,0,0,4.047-1.6,5.856,5.856,0,0,0,1.616-4.185,5.855,5.855,0,0,0-1.616-4.184A5.639,5.639,0,0,0,10.994,12.677Z" transform="translate(337.958 22.649)"/>
    <path id="Fill_36" data-name="Fill 36" class="cls-6" d="M5.908,29.5H.616V8.985H5.908V29.5ZM3.241,6.523A3.284,3.284,0,0,1,0,3.282,3.305,3.305,0,0,1,3.241,0,3.326,3.326,0,0,1,6.523,3.282a3.2,3.2,0,0,1-.964,2.282A3.275,3.275,0,0,1,3.241,6.523Z" transform="translate(364.133 21.87)"/>
    <path id="Fill_37" data-name="Fill 37" class="cls-6" d="M10.832,21.662A10.716,10.716,0,0,1,0,10.832,10.716,10.716,0,0,1,10.832,0a10.858,10.858,0,0,1,7.7,3.123A10.748,10.748,0,0,1,21.7,10.832a10.747,10.747,0,0,1-3.175,7.708A10.859,10.859,0,0,1,10.832,21.662Zm0-16.492A5.5,5.5,0,0,0,6.892,6.754a5.712,5.712,0,0,0-1.6,4.077,5.712,5.712,0,0,0,1.6,4.077,5.5,5.5,0,0,0,3.939,1.585,5.557,5.557,0,0,0,3.974-1.585,5.7,5.7,0,0,0,1.605-4.077,5.7,5.7,0,0,0-1.605-4.077A5.557,5.557,0,0,0,10.832,5.17Z" transform="translate(373.815 30.28)"/>
  </g>
</svg>
