<svg xmlns="http://www.w3.org/2000/svg" width="15" height="15" viewBox="0 0 15 15">
  <g id="Group_1277" data-name="Group 1277" transform="translate(11)">
    <path id="cog" d="M138,135.5a2.5,2.5,0,1,0-.732,1.768A2.409,2.409,0,0,0,138,135.5Zm5-1.064V136.6a.376.376,0,0,1-.078.225.3.3,0,0,1-.2.127l-1.807.273a6.253,6.253,0,0,1-.381.889q.342.488,1.045,1.348a.377.377,0,0,1,.1.244.326.326,0,0,1-.088.225,9.921,9.921,0,0,1-.967,1.055q-.7.693-.918.693a.477.477,0,0,1-.254-.088l-1.348-1.055a5.574,5.574,0,0,1-.889.371,15.969,15.969,0,0,1-.283,1.816.329.329,0,0,1-.352.273h-2.168a.369.369,0,0,1-.239-.083.289.289,0,0,1-.112-.21l-.273-1.8a6.037,6.037,0,0,1-.879-.361l-1.377,1.045a.351.351,0,0,1-.244.088.337.337,0,0,1-.244-.107,12.89,12.89,0,0,1-1.611-1.641.382.382,0,0,1-.068-.225.376.376,0,0,1,.078-.225q.146-.205.5-.649t.527-.688a4.831,4.831,0,0,1-.4-.967l-1.787-.264a.308.308,0,0,1-.205-.122.369.369,0,0,1-.078-.23V134.4a.376.376,0,0,1,.078-.225.294.294,0,0,1,.186-.127l1.816-.273a4.827,4.827,0,0,1,.381-.9q-.391-.557-1.045-1.348a.367.367,0,0,1-.1-.234.412.412,0,0,1,.088-.225,9.7,9.7,0,0,1,.962-1.05q.708-.7.923-.7a.416.416,0,0,1,.254.1l1.348,1.045a5.574,5.574,0,0,1,.889-.371,15.968,15.968,0,0,1,.283-1.816.329.329,0,0,1,.352-.273h2.168a.369.369,0,0,1,.239.083.289.289,0,0,1,.112.21l.273,1.8a6.034,6.034,0,0,1,.879.361l1.387-1.045a.317.317,0,0,1,.234-.088.377.377,0,0,1,.244.1,13.358,13.358,0,0,1,1.611,1.66.315.315,0,0,1,.068.215.376.376,0,0,1-.078.225q-.146.205-.5.649t-.527.688a5.888,5.888,0,0,1,.4.957l1.787.273a.308.308,0,0,1,.205.122A.369.369,0,0,1,143,134.436Z" transform="translate(-139 -128)" fill="#3b3b3b"/>
  </g>
</svg>
