<svg xmlns="http://www.w3.org/2000/svg" width="35" height="35" viewBox="0 0 35 35">
  <g id="Group_1598" data-name="Group 1598" transform="translate(-966.861 -851.861)">
    <g id="Group_890" data-name="Group 890" transform="translate(967 852)">
      <circle id="Ellipse_4" data-name="Ellipse 4" cx="17.5" cy="17.5" r="17.5" transform="translate(-0.139 -0.139)" fill="#616161"/>
    </g>
    <g id="noun_Microphone_856601" transform="translate(977.941 860.587)">
      <rect id="Rectangle_119" data-name="Rectangle 119" width="6.94" height="12.03" rx="3.47" transform="translate(2.478)" fill="#fff"/>
      <path id="Path_114" data-name="Path 114" d="M86.219,223.9a.579.579,0,0,0-.579.579,5.956,5.956,0,0,0,5.37,5.919v2.4H88.7a.579.579,0,1,0,0,1.157H94.48a.579.579,0,0,0,0-1.157H92.167v-2.4a5.956,5.956,0,0,0,5.37-5.919.579.579,0,0,0-1.157,0,4.791,4.791,0,0,1-9.582,0A.579.579,0,0,0,86.219,223.9Z" transform="translate(-85.64 -216.083)" fill="#fff"/>
    </g>
  </g>
</svg>
