<svg xmlns="http://www.w3.org/2000/svg" width="14.05" height="14.446" viewBox="0 0 14.05 14.446">
  <g id="noun_Arrow_1434376" transform="matrix(-0.643, 0.766, -0.766, -0.643, 74.794, 37.455)">
    <g id="Group" transform="translate(0 42.998)">
      <path id="Path" d="M25.767,27.878h-9.53l2.94-2.94a.5.5,0,1,0-.71-.694l-3.782,3.782a.5.5,0,0,0,0,.694L18.466,32.5a.5.5,0,0,0,.694-.694l-2.924-2.94h9.53a.5.5,0,0,0,0-.991Z" transform="translate(0 0)" fill="#24a8eb"/>
    </g>
  </g>
</svg>
