<svg xmlns="http://www.w3.org/2000/svg" width="25.774" height="16.251" viewBox="0 0 25.774 16.251">
  <path id="indent" d="M5.063,136.126a.448.448,0,0,1-.129.331L.791,140.6a.448.448,0,0,1-.331.129.442.442,0,0,1-.324-.137A.442.442,0,0,1,0,140.268v-8.285a.442.442,0,0,1,.137-.324.442.442,0,0,1,.324-.137.448.448,0,0,1,.331.129l4.142,4.142A.448.448,0,0,1,5.063,136.126Zm20.712,5.9v1.762a.467.467,0,0,1-.46.46H.46a.442.442,0,0,1-.324-.137A.442.442,0,0,1,0,143.791V142.03a.442.442,0,0,1,.137-.324.442.442,0,0,1,.324-.137H25.314a.467.467,0,0,1,.46.46Zm0-4.523v1.762a.467.467,0,0,1-.46.46H9.665a.467.467,0,0,1-.46-.46v-1.762a.467.467,0,0,1,.46-.46H25.314a.467.467,0,0,1,.46.46Zm0-4.523v1.762a.467.467,0,0,1-.46.46H9.665a.467.467,0,0,1-.46-.46v-1.762a.467.467,0,0,1,.46-.46H25.314a.467.467,0,0,1,.46.46Zm0-4.523v1.762a.467.467,0,0,1-.46.46H.46a.442.442,0,0,1-.324-.137A.442.442,0,0,1,0,130.222V128.46a.442.442,0,0,1,.137-.324A.442.442,0,0,1,.46,128H25.314a.467.467,0,0,1,.46.46Z" transform="translate(25.774 144.251) rotate(180)" fill="#5c5c5c"/>
</svg>
