<svg xmlns="http://www.w3.org/2000/svg" width="13.421" height="7.5" viewBox="0 0 13.421 7.5">
  <path id="Path" d="M7.3,3.238a.66.66,0,0,1-.912,0l-6.2-6.08A.739.739,0,0,1,0-3.269H0v-.02H0v-.02H0v-.02H0a.68.68,0,0,1,.187-.407l6.2-6.08a.66.66,0,0,1,.912,0,.619.619,0,0,1,0,.915L1.576-3.289,7.3,2.323A.619.619,0,0,1,7.3,3.238Z" transform="translate(10 7.5) rotate(-90)" fill="#616161"/>
</svg>
