<svg xmlns="http://www.w3.org/2000/svg" width="25.711" height="16.18" viewBox="0 0 25.711 16.18">
  <g id="Group_1861" data-name="Group 1861" transform="translate(369.711 181.901) rotate(180)">
    <path id="outdent" d="M25.684,130.211v-1.752a.465.465,0,0,0-.459-.459H.459a.441.441,0,0,0-.322.136.441.441,0,0,0-.136.323v1.752a.441.441,0,0,0,.136.322.441.441,0,0,0,.322.136H25.226a.465.465,0,0,0,.459-.459Zm0,4.5v-1.752a.465.465,0,0,0-.459-.459H.632a.441.441,0,0,0-.322.136.441.441,0,0,0-.136.322v1.752a.441.441,0,0,0,.136.322.441.441,0,0,0,.322.136H25.226a.465.465,0,0,0,.459-.459Zm0,4.5v-1.752a.465.465,0,0,0-.459-.459H10.632a.465.465,0,0,0-.459.459v1.752a.465.465,0,0,0,.459.459H25.226a.465.465,0,0,0,.459-.459Zm0,4.5V141.97a.465.465,0,0,0-.459-.459H10.459a.465.465,0,0,0-.459.459v1.752a.465.465,0,0,0,.459.459H25.226a.465.465,0,0,0,.459-.459Z" transform="translate(344.027 37.72)" fill="#5c5c5c"/>
    <path id="sort-up" d="M8.519.532A.512.512,0,0,0,8.361.158.511.511,0,0,0,7.987,0H.532A.512.512,0,0,0,.158.158.512.512,0,0,0,0,.532.512.512,0,0,0,.158.907L3.885,4.634a.522.522,0,0,0,.749,0L8.361.907A.512.512,0,0,0,8.519.532Z" transform="translate(352.519 181.792) rotate(180)" fill="#5c5c5c"/>
  </g>
</svg>
