<svg xmlns="http://www.w3.org/2000/svg" width="25.711" height="16.18" viewBox="0 0 25.711 16.18">
  <g id="Group_1859" data-name="Group 1859" transform="translate(328.711 181.901) rotate(180)">
    <path id="outdent" d="M25.684,141.97v1.752a.465.465,0,0,1-.459.459H.459a.441.441,0,0,1-.322-.136A.441.441,0,0,1,0,143.722V141.97a.441.441,0,0,1,.136-.322.441.441,0,0,1,.322-.136H25.226a.465.465,0,0,1,.459.459Zm0-4.5v1.752a.465.465,0,0,1-.459.459H.632a.441.441,0,0,1-.322-.136.441.441,0,0,1-.136-.322v-1.752a.441.441,0,0,1,.136-.322.441.441,0,0,1,.322-.136H25.226a.465.465,0,0,1,.459.459Zm0-4.5v1.752a.465.465,0,0,1-.459.459H10.632a.465.465,0,0,1-.459-.459v-1.752a.465.465,0,0,1,.459-.459H25.226a.465.465,0,0,1,.459.459Zm0-4.5v1.752a.465.465,0,0,1-.459.459H10.459a.465.465,0,0,1-.459-.459v-1.752a.465.465,0,0,1,.459-.459H25.226a.465.465,0,0,1,.459.459Z" transform="translate(303.027 37.72)" fill="#5c5c5c"/>
    <path id="sort-up" d="M8.519,4.26a.54.54,0,0,1-.532.532H.532a.512.512,0,0,1-.374-.158.522.522,0,0,1,0-.749L3.885.158a.522.522,0,0,1,.749,0L8.361,3.885A.512.512,0,0,1,8.519,4.26Z" transform="translate(311.519 170.792) rotate(180)" fill="#5c5c5c"/>
  </g>
</svg>
