<svg xmlns="http://www.w3.org/2000/svg" width="34.15" height="21.208" viewBox="0 0 34.15 21.208">
  <g id="noun_Cloud_182494" transform="translate(-4.5 -17.2)">
    <g id="Group_5" data-name="Group 5" transform="translate(4.5 17.2)">
      <circle id="Ellipse_1" data-name="Ellipse 1" cx="0.636" cy="0.636" r="0.636" transform="translate(12.456 11.82)" fill="#8e5fe5"/>
      <path id="Path_1" data-name="Path 1" d="M35.247,29.169a11.415,11.415,0,0,0,.187-1.945,10.237,10.237,0,0,0-18.627-5.648,7.723,7.723,0,0,0-2.319-.374,6.826,6.826,0,0,0-7.032,6.621,6.5,6.5,0,0,0,.187,1.459A4.729,4.729,0,0,0,4.5,33.7a4.79,4.79,0,0,0,4.825,4.713h24.5A4.79,4.79,0,0,0,38.65,33.7,4.914,4.914,0,0,0,35.247,29.169Zm-7.967,1.646-.785-.785-.785.785-.823-.785-.785.785-.785-.785-.785.785H21.22a2.713,2.713,0,0,1-2.431,1.534,2.693,2.693,0,0,1,0-5.386A2.713,2.713,0,0,1,21.22,28.5h6.1l1.16,1.16Z" transform="translate(-4.5 -17.2)" fill="#8e5fe5"/>
    </g>
  </g>
</svg>
