<svg xmlns="http://www.w3.org/2000/svg" width="8.76" height="5.748" viewBox="0 0 8.76 5.748">
  <path id="Path_99" data-name="Path 99" d="M-3257.017-10299.012l1.962,2.073,4.681-3.941" transform="translate(3258.077 10301.937)" fill="none" stroke="#28a745" stroke-linecap="round" stroke-linejoin="round" stroke-width="1.5"/>
</svg>
