<svg xmlns="http://www.w3.org/2000/svg" width="19.75" height="15.8" viewBox="0 0 19.75 15.8">
  <g id="Group_1363" data-name="Group 1363" transform="translate(-1384 -116)">
    <path id="project-diagram-solid" d="M11.85,9.875H7.9a.988.988,0,0,0-.988.987v3.95A.988.988,0,0,0,7.9,15.8h3.95a.988.988,0,0,0,.988-.988v-3.95A.988.988,0,0,0,11.85,9.875ZM5.925.987A.988.988,0,0,0,4.938,0H.988A.988.988,0,0,0,0,.987v3.95a.988.988,0,0,0,.988.988H3.941L6.2,9.876a1.968,1.968,0,0,1,1.7-.989h.009L5.925,5.416V3.95h6.913V1.975H5.925ZM18.762,0h-3.95a.988.988,0,0,0-.988.987v3.95a.988.988,0,0,0,.988.988h3.95a.988.988,0,0,0,.988-.988V.987A.988.988,0,0,0,18.762,0Z" transform="translate(1384 116)" fill="#3b3b3b"/>
  </g>
</svg>
