<svg xmlns="http://www.w3.org/2000/svg" width="9.336" height="7.471" viewBox="0 0 9.336 7.471">
  <path id="Path_99" data-name="Path 99" d="M5.961,32.1,4.725,30.864a.89.89,0,0,0-1.519.63.875.875,0,0,0,.261.628l1.863,1.863a.889.889,0,0,0,1.257,0l5.693-5.693a.889.889,0,0,0-1.257-1.257Z" transform="translate(-3.206 -26.775)"/>
</svg>
