<svg xmlns="http://www.w3.org/2000/svg" width="11.058" height="11.172" viewBox="0 0 11.058 11.172">
  <g id="noun_Cross_929505" transform="translate(0.5 0.557)">
    <path id="Path" d="M5.674,5.032,9.931.793a.435.435,0,0,0,0-.615h0a.44.44,0,0,0-.618,0L5.054,4.414.745.127a.44.44,0,0,0-.618,0,.435.435,0,0,0,0,.615L4.436,5.029.13,9.316a.435.435,0,0,0,0,.615h0a.44.44,0,0,0,.618,0L5.054,5.647,9.307,9.88a.44.44,0,0,0,.618,0,.435.435,0,0,0,0-.615Z" transform="translate(0 0)" fill="#616161" stroke="#616161" stroke-miterlimit="10" stroke-width="1"/>
  </g>
</svg>
