<?xml version="1.0" encoding="utf-8"?>
<!-- Generator: Adobe Illustrator 22.1.0, SVG Export Plug-In . SVG Version: 6.00 Build 0)  -->
<svg version="1.1" id="Layer_1" xmlns="http://www.w3.org/2000/svg" xmlns:xlink="http://www.w3.org/1999/xlink" x="0px" y="0px"
	 viewBox="0 0 162 108" style="enable-background:new 0 0 162 108;" xml:space="preserve">
<style type="text/css">
	.st0{clip-path:url(#SVGID_2_);}
	.st1{fill:#4C4C4E;}
	.st2{fill:#FCB813;}
	.st3{fill:#808184;}
</style>
<g>
	<defs>
		<rect id="SVGID_1_" width="162" height="108"/>
	</defs>
	<clipPath id="SVGID_2_">
		<use xlink:href="#SVGID_1_"  style="overflow:visible;"/>
	</clipPath>
	<g id="Web_1280_1" class="st0">
		<g id="Group_1" transform="translate(137.011 -27.693)">
			<g id="Group_6" transform="translate(-109.553 90.532)">
				<path id="Fill_4" class="st1" d="M87.2,33.8L87.2,33.8h-6.8V0h6.8v13.7h13.6V0h6.8v33.8h-6.8V19H87.2V33.8z M41.3,33.8
					L41.3,33.8h-6.5V0h10.8l8,25.6h0.1l8-25.6h10.8v33.8h-6.5V5.9h-0.1L57,33.8h-6.5L41.4,5.9L41.3,6L41.3,33.8L41.3,33.8z
					 M6.8,33.8L6.8,33.8H0V0h6.8v13.7h13.6V0h6.8v33.8h-6.8V19H6.8L6.8,33.8L6.8,33.8z"/>
			</g>
			<g id="Group_9" transform="translate(-74.41 40.14)">
				<path id="Fill_7" class="st2" d="M24.7,35.4L24.7,35.4c-4.7,0-10.9-3.3-16.2-8.5c-3.4-3.3-6.1-7.3-7.7-11.8
					c-1.3-3.9-1-7.1,0.8-8.9c0.8-0.8,1.9-1.3,3.1-1.5l0,0c0,0,0.1,0,0.1,0l0.1,0c0.4-0.1,0.9-0.1,1.3-0.1c4.7,0,10.9,3.3,16.2,8.5
					c5.9,5.9,9.2,12.9,8.4,17.6c-0.2,1.2-0.7,2.2-1.5,3.1C28,35,26.4,35.5,24.7,35.4z M58.2,35.4c-9.8,0-17.7-7.9-17.7-17.7
					S48.4,0,58.2,0s17.7,7.9,17.7,17.7c0,0,0,0,0,0C75.9,27.5,68,35.4,58.2,35.4L58.2,35.4z"/>
			</g>
			<g id="Group_12" transform="translate(-113.011 39.693)">
				<path id="Fill_10" class="st3" d="M40.4,35H0L20.4,0L40.4,35L40.4,35z M69.4,31.2L69.4,31.2L69.4,31.2
					c0.8-4.7-2.6-11.8-8.4-17.6C55.7,8.3,49.5,5,44.8,5c-0.4,0-0.9,0-1.3,0.1l31.1-5L69.4,31.2z"/>
			</g>
		</g>
	</g>
</g>
</svg>
