<svg xmlns="http://www.w3.org/2000/svg" width="25.684" height="16.18" viewBox="0 0 25.684 16.18">
  <path id="outdent" d="M5.5,131.962v8.256a.465.465,0,0,1-.459.459.446.446,0,0,1-.33-.129L.588,136.42a.486.486,0,0,1,0-.659l4.128-4.128a.446.446,0,0,1,.33-.129.465.465,0,0,1,.459.459Zm20.18,10.008v1.752a.465.465,0,0,1-.459.459H.459a.441.441,0,0,1-.322-.136A.441.441,0,0,1,0,143.722V141.97a.441.441,0,0,1,.136-.322.441.441,0,0,1,.322-.136H25.226a.465.465,0,0,1,.459.459Zm0-4.5v1.752a.465.465,0,0,1-.459.459H9.632a.465.465,0,0,1-.459-.459v-1.752a.465.465,0,0,1,.459-.459H25.226a.465.465,0,0,1,.459.459Zm0-4.5v1.752a.465.465,0,0,1-.459.459H9.632a.465.465,0,0,1-.459-.459v-1.752a.465.465,0,0,1,.459-.459H25.226a.465.465,0,0,1,.459.459Zm0-4.5v1.752a.465.465,0,0,1-.459.459H.459a.441.441,0,0,1-.322-.136A.441.441,0,0,1,0,130.211v-1.752a.441.441,0,0,1,.136-.322A.441.441,0,0,1,.459,128H25.226a.465.465,0,0,1,.459.459Z" transform="translate(25.684 144.18) rotate(180)" fill="#5c5c5c"/>
</svg>
