<svg xmlns="http://www.w3.org/2000/svg" width="10.924" height="12.484" viewBox="0 0 10.924 12.484">
  <path id="trash" d="M4.682,0A1.565,1.565,0,0,0,3.121,1.561H1.561A1.565,1.565,0,0,0,0,3.121H10.924A1.565,1.565,0,0,0,9.363,1.561H7.8A1.565,1.565,0,0,0,6.242,0ZM1.561,4.682v7.506a.287.287,0,0,0,.3.3H9.082a.287.287,0,0,0,.3-.3V4.682H7.818v5.462a.78.78,0,0,1-1.561,0V4.682H4.7v5.462a.78.78,0,0,1-1.561,0V4.682H1.576Z" fill="#919191"/>
</svg>
