<svg xmlns="http://www.w3.org/2000/svg" width="16" height="4" viewBox="0 0 16 4">
  <g id="Group_1848" data-name="Group 1848" transform="translate(-158 -179)">
    <g id="Group_1847" data-name="Group 1847" transform="translate(158 173)">
      <rect id="Rectangle_58" data-name="Rectangle 58" width="16" height="4" rx="0.5" transform="translate(0 6)" fill="#5c5c5c"/>
    </g>
  </g>
</svg>
