<svg xmlns="http://www.w3.org/2000/svg" width="5.904" height="10.258" viewBox="0 0 5.904 10.258">
  <path id="Path" d="M5.259-.461a.476.476,0,0,1-.657,0L.134-4.842A.532.532,0,0,1,0-5.15H0v-.015H0v-.015H0v-.015H0a.49.49,0,0,1,.134-.293L4.6-9.868a.476.476,0,0,1,.657,0,.446.446,0,0,1,0,.659L1.135-5.164,5.259-1.12A.446.446,0,0,1,5.259-.461Z" transform="translate(5.654 -0.035) rotate(180)" fill="#616161" stroke="#616161" stroke-width="0.5"/>
</svg>
