<svg xmlns="http://www.w3.org/2000/svg" width="20.003" height="19.076" viewBox="0 0 20.003 19.076">
  <g id="Tool-Eraser" transform="translate(-548.109 -160.761)">
    <g id="Group_1751" data-name="Group 1751" transform="translate(-153.23 -1)">
      <rect id="Rectangle_180" data-name="Rectangle 180" width="9.33" height="10.663" transform="translate(709.848 165.813) rotate(45)" fill="#fff"/>
      <path id="eraser" d="M12.93,3.1,7.78,8.25,2.62,13.5a2.18,2.18,0,0,0,0,3.05L7.3,21.22a1.07,1.07,0,0,0,.76.32H20.68a.4.4,0,0,0,.4-.4V19.77a.4.4,0,0,0-.4-.4H13.53l7.84-7.84a2.17,2.17,0,0,0,0-3.06L16,3.1a2.17,2.17,0,0,0-3.07,0ZM8.51,19.37,4.17,15,9.32,9.78l.8-.81,5.37,5.37-4.94,4.94-.08.09h-2Z" transform="translate(699.342 159.297)" fill="#8c8c8c"/>
    </g>
  </g>
</svg>
