<svg xmlns="http://www.w3.org/2000/svg" width="19.802" height="15.828" viewBox="0 0 19.802 15.828">
  <g id="Tool-Redo" transform="translate(-717.6 -60.792)">
    <path id="Redo" d="M8.47,20.13H11.4a.6.6,0,0,0,.6-.6v-1.3a.6.6,0,0,0-.6-.6h-3a3.82,3.82,0,0,1-3.78-3,3.76,3.76,0,0,1,3.67-4.54h7.5V13a.4.4,0,0,0,.65.32l5.21-4.17a.41.41,0,0,0,0-.63L16.4,4.39a.4.4,0,0,0-.65.32V7.62H8.25a6.26,6.26,0,0,0-6.2,7.08,6.41,6.41,0,0,0,6.42,5.43Z" transform="translate(715.604 56.49)" fill="#8c8c8c"/>
  </g>
</svg>
