<svg xmlns="http://www.w3.org/2000/svg" width="14.142" height="14.102" viewBox="0 0 14.142 14.102">
  <g id="Tool-Arrow" transform="translate(-242.428 -61.742)">
    <path id="Arrow" d="M14.66,7.57,5.09,17.14a.61.61,0,0,0,0,.85l.92.92a.61.61,0,0,0,.85,0l9.57-9.57L18.06,11a.6.6,0,0,0,1-.42v-5a.6.6,0,0,0-.6-.6h-5a.6.6,0,0,0-.42,1Z" transform="translate(237.511 56.762)" fill="#8c8c8c"/>
  </g>
</svg>
