<svg xmlns="http://www.w3.org/2000/svg" xmlns:xlink="http://www.w3.org/1999/xlink" width="214" height="214" viewBox="0 0 214 214">
  <defs>
    <clipPath id="clip-path">
      <circle id="Mask" cx="107" cy="107" r="107" fill="#fcfcfc" stroke="#d8d8d8" stroke-miterlimit="10" stroke-width="1"/>
    </clipPath>
  </defs>
  <g id="iphone" clip-path="url(#clip-path)">
    <g id="noun_archives_2139390" transform="translate(51.915 36.064)">
      <g id="Group_1048" data-name="Group 1048" transform="translate(0 0)">
        <path id="Path_95" data-name="Path 95" d="M55.646,960.05a2.736,2.736,0,0,0-2.542,1.742l-21.186,52.59h4.52l18.549-45.858a5.016,5.016,0,0,1,.471-.942c.015-.02.081-.029.093-.047a5.041,5.041,0,0,1,.565-.753c.063-.063.122-.128.188-.188a5.358,5.358,0,0,1,1.507-.989,5.611,5.611,0,0,1,2.072-.471,4.766,4.766,0,0,1,1.036.142,6.063,6.063,0,0,1,1.036.283l42.374,17,.093-.093a2.8,2.8,0,0,0-1.6-3.672L56.775,960.239a2.859,2.859,0,0,0-1.13-.188Zm4.237,7.674a2.437,2.437,0,0,0-.471.047,3.389,3.389,0,0,0-.565.188,3.023,3.023,0,0,0-.471.235,2.9,2.9,0,0,0-.565.518c-.015.016-.08.03-.093.047-.056.069-.044.16-.093.235a2.527,2.527,0,0,0-.282.471l-18.173,44.915h4.049L58.661,976.2a4.967,4.967,0,0,1,.471-.942c.057-.086.125-.153.188-.235.1-.136.263-.252.377-.377.069-.075.115-.165.188-.235a5.4,5.4,0,0,1,3.672-1.6,5.63,5.63,0,0,1,2.166.424l42.75,17.233.188-.33a2.872,2.872,0,0,0-1.6-3.72l-2.26-.894a1.3,1.3,0,0,1-.188-.094l-43.6-17.514a3.756,3.756,0,0,0-.565-.142h-.093a2.952,2.952,0,0,0-.471-.047Zm3.672,7.674a2.777,2.777,0,0,0-.753.142c-.035.015-.06.035-.093.047s-.143.029-.188.047a2.608,2.608,0,0,0-1.036.8c-.056.069-.139.16-.188.235a2.621,2.621,0,0,0-.283.471l-14.972,37.242h3.767a1.28,1.28,0,0,1,.942.424l7.345,7.815h44.257l9.981-24.812a2.872,2.872,0,0,0-1.6-3.72l-1.6-.659a1.277,1.277,0,0,1-.377-.094L64.686,975.588a2.708,2.708,0,0,0-.565-.142,3.68,3.68,0,0,0-.565-.047Zm3.39,13.23a1.28,1.28,0,0,1,.753.093l32.486,13.042a1.294,1.294,0,1,1-.94,2.41L66.759,991.086a1.281,1.281,0,0,1,.188-2.448Zm-3.39,7.486q.047,0,.093,0a1.28,1.28,0,0,1,.659.093L96.794,1009.3a1.286,1.286,0,1,1-1.036,2.354L63.366,998.61a1.281,1.281,0,0,1,.188-2.5Zm-3.107,7.674a1.28,1.28,0,0,1,.753.093l32.486,13.042a1.29,1.29,0,0,1-.942,2.4L60.26,1006.237a1.281,1.281,0,0,1,.188-2.448Zm-43.127,13.136a2,2,0,0,0-1.224.706,3.275,3.275,0,0,0-.847,2.166v64.926a2.792,2.792,0,0,0,2.825,2.825h99.06a2.792,2.792,0,0,0,2.825-2.825v-56.687a2.792,2.792,0,0,0-2.825-2.825H57.53a1.281,1.281,0,0,1-.942-.424l-7.345-7.815H18.074a1.3,1.3,0,0,1-.19-.015,2.425,2.425,0,0,0-.565,0Z" transform="translate(-15.25 -960.05)" fill="silver"/>
      </g>
    </g>
    <g id="noun_archives_2139390-2" data-name="noun_archives_2139390" transform="translate(68.583 36.064)">
      <g id="Group_1048-2" data-name="Group 1048" transform="translate(0 0)">
        <path id="Path_95-2" data-name="Path 95" d="M63.16,960.05a2.736,2.736,0,0,0-2.542,1.742l-21.186,52.59h4.52L62.5,968.524a5.016,5.016,0,0,1,.471-.942c.015-.02.081-.029.093-.047a5.041,5.041,0,0,1,.565-.753c.063-.063.122-.128.188-.188a5.358,5.358,0,0,1,1.507-.989,5.611,5.611,0,0,1,2.072-.471,4.766,4.766,0,0,1,1.036.142,6.063,6.063,0,0,1,1.036.283l42.374,17,.093-.093a2.8,2.8,0,0,0-1.6-3.672L64.289,960.239a2.859,2.859,0,0,0-1.13-.188Zm4.237,7.674a2.437,2.437,0,0,0-.471.047,3.388,3.388,0,0,0-.565.188,3.023,3.023,0,0,0-.471.235,2.9,2.9,0,0,0-.565.518c-.015.016-.08.03-.093.047-.056.069-.044.16-.093.235a2.528,2.528,0,0,0-.282.471l-18.173,44.915h4.049L66.175,976.2a4.967,4.967,0,0,1,.471-.942c.057-.086.125-.153.188-.235.1-.136.263-.252.377-.377.069-.075.115-.165.188-.235a5.4,5.4,0,0,1,3.672-1.6,5.63,5.63,0,0,1,2.166.424l42.75,17.233.188-.33a2.872,2.872,0,0,0-1.6-3.72l-2.26-.894a1.3,1.3,0,0,1-.188-.094l-43.6-17.514a3.755,3.755,0,0,0-.565-.142H67.87a2.952,2.952,0,0,0-.471-.047Zm3.672,7.674a2.777,2.777,0,0,0-.753.142c-.035.015-.06.035-.093.047s-.143.029-.188.047a2.608,2.608,0,0,0-1.036.8c-.056.069-.139.16-.188.235a2.621,2.621,0,0,0-.283.471l-14.972,37.242h3.767a1.28,1.28,0,0,1,.942.424l7.345,7.815h44.257l9.981-24.812a2.872,2.872,0,0,0-1.6-3.72l-1.6-.659a1.277,1.277,0,0,1-.377-.094L72.2,975.588a2.708,2.708,0,0,0-.565-.142,3.68,3.68,0,0,0-.565-.047Zm3.39,13.23a1.28,1.28,0,0,1,.753.093l32.486,13.042a1.294,1.294,0,1,1-.94,2.41L74.272,991.086a1.281,1.281,0,0,1,.188-2.448Zm-3.39,7.486q.047,0,.093,0a1.28,1.28,0,0,1,.659.093l32.486,13.089a1.286,1.286,0,1,1-1.036,2.354L70.879,998.61a1.281,1.281,0,0,1,.188-2.5Zm-3.107,7.674a1.28,1.28,0,0,1,.753.093l32.486,13.042a1.29,1.29,0,0,1-.942,2.4l-32.486-13.089a1.281,1.281,0,0,1,.188-2.448Z" transform="translate(-39.431 -960.05)" fill="#28a745"/>
      </g>
    </g>
  </g>
</svg>
