<svg xmlns="http://www.w3.org/2000/svg" width="50.594" height="50.594" viewBox="0 0 50.594 50.594">
  <g id="noun_edit_2075460" transform="translate(-5 -5)">
    <path id="Path_32" data-name="Path 32" d="M12.452,72.346l-.965.965a.583.583,0,1,0,.825.825l.965-.965a83.091,83.091,0,0,0,8.388-1.719l-7.493-7.493A83.093,83.093,0,0,0,12.452,72.346Z" transform="translate(-2.766 -25.815)" fill="#626262"/>
    <path id="Path_33" data-name="Path 33" d="M57.671,13.242a2.556,2.556,0,0,0,0-3.615L53.794,5.749a2.556,2.556,0,0,0-3.615,0L19.564,36.363l7.493,7.493Z" transform="translate(-6.377 0)" fill="#626262"/>
    <path id="Path_34" data-name="Path 34" d="M5.617,90H54.977a.617.617,0,0,1,.617.617v1.576a.617.617,0,0,1-.617.617H5.617A.617.617,0,0,1,5,92.193V90.617A.617.617,0,0,1,5.617,90Z" transform="translate(0 -37.217)" fill="#626262"/>
  </g>
</svg>
