<svg xmlns="http://www.w3.org/2000/svg" width="9.034" height="4.973" viewBox="0 0 9.034 4.973">
  <path id="_8:16:8:16" data-name="8:16:8:16" d="M4.517.973,9.034-4H0Z" transform="translate(0 4)" fill="#fff"/>
</svg>
