<svg xmlns="http://www.w3.org/2000/svg" width="18.03" height="11.186" viewBox="0 0 18.03 11.186">
  <g id="left-arrow" transform="translate(-454 88.086)">
    <path id="Path_88" data-name="Path 88" d="M17.249,80.727H2.665l3.48-3.48a.78.78,0,0,0-1.1-1.1L.229,80.955a.78.78,0,0,0,0,1.1l4.813,4.813a.78.78,0,1,0,1.1-1.1l-3.48-3.481H17.249a.78.78,0,1,0,0-1.561Z" transform="translate(454 -164)" fill="#949494"/>
  </g>
</svg>
