<svg id="Group_8" data-name="Group 8" xmlns="http://www.w3.org/2000/svg" width="17" height="3.563" viewBox="0 0 17 3.563">
  <circle id="Oval" cx="1.781" cy="1.781" r="1.781" fill="#616161"/>
  <circle id="Oval-2" data-name="Oval" cx="1.781" cy="1.781" r="1.781" transform="translate(7.313)" fill="#616161"/>
  <circle id="Oval-3" data-name="Oval" cx="1.781" cy="1.781" r="1.781" transform="translate(13.438)" fill="#616161"/>
</svg>
