<svg xmlns="http://www.w3.org/2000/svg" width="107.944" height="108.843" viewBox="0 0 107.944 108.843">
  <g id="Group_545" data-name="Group 545" transform="translate(-582.876 -252.977)">
    <g id="Group_543" data-name="Group 543" transform="translate(582.876 252.977)">
      <g id="iconfinder_group_309042" transform="translate(0 0)">
        <g id="Group_12" data-name="Group 12" transform="translate(0 0)">
          <path id="Path_5" data-name="Path 5" d="M20.095,27.277A22.552,22.552,0,0,1,42.372,5,22.552,22.552,0,0,1,64.649,27.277,22.552,22.552,0,0,1,42.372,49.554,22.552,22.552,0,0,1,20.095,27.277ZM42.372,62.284C11.184,62.284,1,87.744,1,87.744v12.73H83.744V87.744S73.56,62.284,42.372,62.284Z" transform="translate(-1 -5)" fill="#d8d8d8"/>
        </g>
      </g>
    </g>
    <g id="Group_544" data-name="Group 544" transform="translate(647.337 318.338)">
      <circle id="Oval" cx="20.741" cy="20.741" r="20.741" transform="translate(0 0)" fill="#d8d8d8" stroke="#fff" stroke-miterlimit="10" stroke-width="4"/>
      <g id="noun_Cross_929505" transform="translate(14.081 14.081)">
        <path id="Path" d="M7.643,6.777l5.733-5.709a.585.585,0,0,0,0-.828h0a.592.592,0,0,0-.832,0L6.807,5.946,1,.171a.592.592,0,0,0-.832,0A.585.585,0,0,0,.172,1l5.8,5.775-5.8,5.775a.585.585,0,0,0,0,.828h0a.592.592,0,0,0,.832,0l5.8-5.771,5.73,5.7a.592.592,0,0,0,.832,0,.585.585,0,0,0,0-.828Z" transform="translate(0 0)" fill="#646464" stroke="#4d4d4d" stroke-miterlimit="10" stroke-width="1"/>
      </g>
    </g>
  </g>
</svg>
