<svg xmlns="http://www.w3.org/2000/svg" width="16.889" height="16.889" viewBox="0 0 16.889 16.889">
  <g id="noun_pause_2935827" transform="translate(-97 -340.258)">
    <g id="Group_1780" data-name="Group 1780" transform="translate(97 340.258)">
      <path id="Path_137" data-name="Path 137" d="M8.458,0A8.444,8.444,0,1,1,0,8.458,8.449,8.449,0,0,1,8.458,0ZM6.177,4.368h.195a.867.867,0,0,1,.863.863v6.427a.873.873,0,0,1-.863.89H6.177a.873.873,0,0,1-.863-.89V5.231A.867.867,0,0,1,6.177,4.368Zm4.368,0h.195a.867.867,0,0,1,.863.863v6.427a.873.873,0,0,1-.863.89h-.195a.9.9,0,0,1-.89-.89V5.231A.891.891,0,0,1,10.545,4.368Z" fill="#616161" fill-rule="evenodd"/>
    </g>
  </g>
</svg>
